{
  "bomFormat": "CycloneDX",
  "specVersion": "1.4",
  "serialNumber": "urn:uuid:de8a67df-4129-45a3-ae81-d7e111ffe3bc",
  "version": 1,
  "metadata": {
    "timestamp": "2024-09-04T12:47:19Z",
    "tools": [
      {
        "vendor": "GitLab",
        "name": "Gemnasium",
        "version": "5.6.0"
      }
    ],
    "authors": [
      {
        "name": "GitLab",
        "email": "support@gitlab.com"
      }
    ],
    "properties": [
      {
        "name": "gitlab:dependency_scanning:input_file:path",
        "value": "conan.lock"
      },
      {
        "name": "gitlab:dependency_scanning:package_manager:name",
        "value": "conan"
      },
      {
        "name": "gitlab:meta:schema_version",
        "value": "1"
      }
    ]
  },
  "components": [
    {
      "name": "boost",
      "version": "1.83.0",
      "purl": "pkg:conan/boost@1.83.0",
      "type": "library",
      "bom-ref": "pkg:conan/boost@1.83.0",
      "properties": [
        {
          "name": "gitlab:dependency_scanning_component:reachability",
          "value": "unknown"
        }
      ]
    },
    {
      "name": "bzip2",
      "version": "1.0.8",
      "purl": "pkg:conan/bzip2@1.0.8",
      "type": "library",
      "bom-ref": "pkg:conan/bzip2@1.0.8",
      "properties": [
        {
          "name": "gitlab:dependency_scanning_component:reachability",
          "value": "unknown"
        }
      ]
    },
    {
      "name": "jerryscript",
      "version": "2.2.0",
      "purl": "pkg:conan/jerryscript@2.2.0",
      "type": "library",
      "bom-ref": "pkg:conan/jerryscript@2.2.0",
      "properties": [
        {
          "name": "gitlab:dependency_scanning_component:reachability",
          "value": "unknown"
        }
      ]
    },
    {
      "name": "libbacktrace",
      "version": "cci.20210118",
      "purl": "pkg:conan/libbacktrace@cci.20210118",
      "type": "library",
      "bom-ref": "pkg:conan/libbacktrace@cci.20210118",
      "properties": [
        {
          "name": "gitlab:dependency_scanning_component:reachability",
          "value": "unknown"
        }
      ]
    },
    {
      "name": "numcpp",
      "version": "2.11.0",
      "purl": "pkg:conan/numcpp@2.11.0",
      "type": "library",
      "bom-ref": "pkg:conan/numcpp@2.11.0",
      "properties": [
        {
          "name": "gitlab:dependency_scanning_component:reachability",
          "value": "unknown"
        }
      ]
    },
    {
      "name": "wolfssl",
      "version": "4.4.0",
      "purl": "pkg:conan/wolfssl@4.4.0",
      "type": "library",
      "bom-ref": "pkg:conan/wolfssl@4.4.0",
      "properties": [
        {
          "name": "gitlab:dependency_scanning_component:reachability",
          "value": "unknown"
        }
      ]
    },
    {
      "name": "zlib",
      "version": "1.3",
      "purl": "pkg:conan/zlib@1.3",
      "type": "library",
      "bom-ref": "pkg:conan/zlib@1.3",
      "properties": [
        {
          "name": "gitlab:dependency_scanning_component:reachability",
          "value": "unknown"
        }
      ]
    },
    {
      "name": "zstd",
      "version": "1.4.4",
      "purl": "pkg:conan/zstd@1.4.4",
      "type": "library",
      "bom-ref": "pkg:conan/zstd@1.4.4",
      "properties": [
        {
          "name": "gitlab:dependency_scanning_component:reachability",
          "value": "unknown"
        }
      ]
    }
  ],
  "dependencies": [
    {
      "ref": "pkg:conan/boost@1.83.0",
      "dependsOn": [
        "pkg:conan/bzip2@1.0.8",
        "pkg:conan/libbacktrace@cci.20210118",
        "pkg:conan/zlib@1.3"
      ]
    },
    {
      "ref": "pkg:conan/numcpp@2.11.0",
      "dependsOn": [
        "pkg:conan/boost@1.83.0"
      ]
    }
  ]
}
