[
  {
    "from": {
      "name": "aho-corasick",
      "version": "1.1.3"
    },
    "to": {
      "name": "memchr",
      "version": "2.7.2"
    },
    "range": ""
  },
  {
    "from": {
      "name": "android_system_properties",
      "version": "0.1.5"
    },
    "to": {
      "name": "libc",
      "version": "0.2.153"
    },
    "range": ""
  },
  {
    "from": {
      "name": "anstream",
      "version": "0.3.2"
    },
    "to": {
      "name": "anstyle",
      "version": "1.0.6"
    },
    "range": ""
  },
  {
    "from": {
      "name": "anstream",
      "version": "0.3.2"
    },
    "to": {
      "name": "anstyle-parse",
      "version": "0.2.3"
    },
    "range": ""
  },
  {
    "from": {
      "name": "anstream",
      "version": "0.3.2"
    },
    "to": {
      "name": "anstyle-query",
      "version": "1.0.2"
    },
    "range": ""
  },
  {
    "from": {
      "name": "anstream",
      "version": "0.3.2"
    },
    "to": {
      "name": "anstyle-wincon",
      "version": "1.0.2"
    },
    "range": ""
  },
  {
    "from": {
      "name": "anstream",
      "version": "0.3.2"
    },
    "to": {
      "name": "colorchoice",
      "version": "1.0.0"
    },
    "range": ""
  },
  {
    "from": {
      "name": "anstream",
      "version": "0.3.2"
    },
    "to": {
      "name": "is-terminal",
      "version": "0.4.12"
    },
    "range": ""
  },
  {
    "from": {
      "name": "anstream",
      "version": "0.3.2"
    },
    "to": {
      "name": "utf8parse",
      "version": "0.2.1"
    },
    "range": ""
  },
  {
    "from": {
      "name": "anstyle-parse",
      "version": "0.2.3"
    },
    "to": {
      "name": "utf8parse",
      "version": "0.2.1"
    },
    "range": ""
  },
  {
    "from": {
      "name": "anstyle-query",
      "version": "1.0.2"
    },
    "to": {
      "name": "windows-sys",
      "version": "0.52.0"
    },
    "range": ""
  },
  {
    "from": {
      "name": "anstyle-wincon",
      "version": "1.0.2"
    },
    "to": {
      "name": "anstyle",
      "version": "1.0.6"
    },
    "range": ""
  },
  {
    "from": {
      "name": "anstyle-wincon",
      "version": "1.0.2"
    },
    "to": {
      "name": "windows-sys",
      "version": "0.48.0"
    },
    "range": ""
  },
  {
    "from": {
      "name": "assert_cmd",
      "version": "2.0.14"
    },
    "to": {
      "name": "anstyle",
      "version": "1.0.6"
    },
    "range": ""
  },
  {
    "from": {
      "name": "assert_cmd",
      "version": "2.0.14"
    },
    "to": {
      "name": "bstr",
      "version": "1.9.1"
    },
    "range": ""
  },
  {
    "from": {
      "name": "assert_cmd",
      "version": "2.0.14"
    },
    "to": {
      "name": "doc-comment",
      "version": "0.3.3"
    },
    "range": ""
  },
  {
    "from": {
      "name": "assert_cmd",
      "version": "2.0.14"
    },
    "to": {
      "name": "predicates",
      "version": "3.1.0"
    },
    "range": ""
  },
  {
    "from": {
      "name": "assert_cmd",
      "version": "2.0.14"
    },
    "to": {
      "name": "predicates-core",
      "version": "1.0.6"
    },
    "range": ""
  },
  {
    "from": {
      "name": "assert_cmd",
      "version": "2.0.14"
    },
    "to": {
      "name": "predicates-tree",
      "version": "1.0.9"
    },
    "range": ""
  },
  {
    "from": {
      "name": "assert_cmd",
      "version": "2.0.14"
    },
    "to": {
      "name": "wait-timeout",
      "version": "0.2.0"
    },
    "range": ""
  },
  {
    "from": {
      "name": "assert_fs",
      "version": "1.1.1"
    },
    "to": {
      "name": "anstyle",
      "version": "1.0.6"
    },
    "range": ""
  },
  {
    "from": {
      "name": "assert_fs",
      "version": "1.1.1"
    },
    "to": {
      "name": "doc-comment",
      "version": "0.3.3"
    },
    "range": ""
  },
  {
    "from": {
      "name": "assert_fs",
      "version": "1.1.1"
    },
    "to": {
      "name": "globwalk",
      "version": "0.9.1"
    },
    "range": ""
  },
  {
    "from": {
      "name": "assert_fs",
      "version": "1.1.1"
    },
    "to": {
      "name": "predicates",
      "version": "3.1.0"
    },
    "range": ""
  },
  {
    "from": {
      "name": "assert_fs",
      "version": "1.1.1"
    },
    "to": {
      "name": "predicates-core",
      "version": "1.0.6"
    },
    "range": ""
  },
  {
    "from": {
      "name": "assert_fs",
      "version": "1.1.1"
    },
    "to": {
      "name": "predicates-tree",
      "version": "1.0.9"
    },
    "range": ""
  },
  {
    "from": {
      "name": "assert_fs",
      "version": "1.1.1"
    },
    "to": {
      "name": "tempfile",
      "version": "3.10.1"
    },
    "range": ""
  },
  {
    "from": {
      "name": "bitflags",
      "version": "2.5.0"
    },
    "to": {
      "name": "serde",
      "version": "1.0.197"
    },
    "range": ""
  },
  {
    "from": {
      "name": "bstr",
      "version": "1.9.1"
    },
    "to": {
      "name": "memchr",
      "version": "2.7.2"
    },
    "range": ""
  },
  {
    "from": {
      "name": "bstr",
      "version": "1.9.1"
    },
    "to": {
      "name": "regex-automata",
      "version": "0.4.6"
    },
    "range": ""
  },
  {
    "from": {
      "name": "bstr",
      "version": "1.9.1"
    },
    "to": {
      "name": "serde",
      "version": "1.0.197"
    },
    "range": ""
  },
  {
    "from": {
      "name": "cc",
      "version": "1.0.90"
    },
    "to": {
      "name": "jobserver",
      "version": "0.1.28"
    },
    "range": ""
  },
  {
    "from": {
      "name": "cc",
      "version": "1.0.90"
    },
    "to": {
      "name": "libc",
      "version": "0.2.153"
    },
    "range": ""
  },
  {
    "from": {
      "name": "chrono",
      "version": "0.4.37"
    },
    "to": {
      "name": "android-tzdata",
      "version": "0.1.1"
    },
    "range": ""
  },
  {
    "from": {
      "name": "chrono",
      "version": "0.4.37"
    },
    "to": {
      "name": "iana-time-zone",
      "version": "0.1.60"
    },
    "range": ""
  },
  {
    "from": {
      "name": "chrono",
      "version": "0.4.37"
    },
    "to": {
      "name": "js-sys",
      "version": "0.3.69"
    },
    "range": ""
  },
  {
    "from": {
      "name": "chrono",
      "version": "0.4.37"
    },
    "to": {
      "name": "num-traits",
      "version": "0.2.18"
    },
    "range": ""
  },
  {
    "from": {
      "name": "chrono",
      "version": "0.4.37"
    },
    "to": {
      "name": "pure-rust-locales",
      "version": "0.8.1"
    },
    "range": ""
  },
  {
    "from": {
      "name": "chrono",
      "version": "0.4.37"
    },
    "to": {
      "name": "wasm-bindgen",
      "version": "0.2.92"
    },
    "range": ""
  },
  {
    "from": {
      "name": "chrono",
      "version": "0.4.37"
    },
    "to": {
      "name": "windows-targets",
      "version": "0.52.4"
    },
    "range": ""
  },
  {
    "from": {
      "name": "chrono-humanize",
      "version": "0.2.3"
    },
    "to": {
      "name": "chrono",
      "version": "0.4.37"
    },
    "range": ""
  },
  {
    "from": {
      "name": "clap",
      "version": "4.3.24"
    },
    "to": {
      "name": "clap_builder",
      "version": "4.3.24"
    },
    "range": ""
  },
  {
    "from": {
      "name": "clap",
      "version": "4.3.24"
    },
    "to": {
      "name": "clap_derive",
      "version": "4.3.12"
    },
    "range": ""
  },
  {
    "from": {
      "name": "clap",
      "version": "4.3.24"
    },
    "to": {
      "name": "once_cell",
      "version": "1.19.0"
    },
    "range": ""
  },
  {
    "from": {
      "name": "clap_builder",
      "version": "4.3.24"
    },
    "to": {
      "name": "anstream",
      "version": "0.3.2"
    },
    "range": ""
  },
  {
    "from": {
      "name": "clap_builder",
      "version": "4.3.24"
    },
    "to": {
      "name": "anstyle",
      "version": "1.0.6"
    },
    "range": ""
  },
  {
    "from": {
      "name": "clap_builder",
      "version": "4.3.24"
    },
    "to": {
      "name": "clap_lex",
      "version": "0.5.1"
    },
    "range": ""
  },
  {
    "from": {
      "name": "clap_builder",
      "version": "4.3.24"
    },
    "to": {
      "name": "strsim",
      "version": "0.10.0"
    },
    "range": ""
  },
  {
    "from": {
      "name": "clap_builder",
      "version": "4.3.24"
    },
    "to": {
      "name": "terminal_size",
      "version": "0.2.6"
    },
    "range": ""
  },
  {
    "from": {
      "name": "clap_complete",
      "version": "4.5.1"
    },
    "to": {
      "name": "clap",
      "version": "4.3.24"
    },
    "range": ""
  },
  {
    "from": {
      "name": "clap_derive",
      "version": "4.3.12"
    },
    "to": {
      "name": "heck",
      "version": "0.4.1"
    },
    "range": ""
  },
  {
    "from": {
      "name": "clap_derive",
      "version": "4.3.12"
    },
    "to": {
      "name": "proc-macro2",
      "version": "1.0.79"
    },
    "range": ""
  },
  {
    "from": {
      "name": "clap_derive",
      "version": "4.3.12"
    },
    "to": {
      "name": "quote",
      "version": "1.0.35"
    },
    "range": ""
  },
  {
    "from": {
      "name": "clap_derive",
      "version": "4.3.12"
    },
    "to": {
      "name": "syn",
      "version": "2.0.57"
    },
    "range": ""
  },
  {
    "from": {
      "name": "crossbeam-deque",
      "version": "0.8.5"
    },
    "to": {
      "name": "crossbeam-epoch",
      "version": "0.9.18"
    },
    "range": ""
  },
  {
    "from": {
      "name": "crossbeam-deque",
      "version": "0.8.5"
    },
    "to": {
      "name": "crossbeam-utils",
      "version": "0.8.19"
    },
    "range": ""
  },
  {
    "from": {
      "name": "crossbeam-epoch",
      "version": "0.9.18"
    },
    "to": {
      "name": "crossbeam-utils",
      "version": "0.8.19"
    },
    "range": ""
  },
  {
    "from": {
      "name": "crossterm",
      "version": "0.27.0"
    },
    "to": {
      "name": "bitflags",
      "version": "2.5.0"
    },
    "range": ""
  },
  {
    "from": {
      "name": "crossterm",
      "version": "0.27.0"
    },
    "to": {
      "name": "crossterm_winapi",
      "version": "0.9.1"
    },
    "range": ""
  },
  {
    "from": {
      "name": "crossterm",
      "version": "0.27.0"
    },
    "to": {
      "name": "libc",
      "version": "0.2.153"
    },
    "range": ""
  },
  {
    "from": {
      "name": "crossterm",
      "version": "0.27.0"
    },
    "to": {
      "name": "mio",
      "version": "0.8.11"
    },
    "range": ""
  },
  {
    "from": {
      "name": "crossterm",
      "version": "0.27.0"
    },
    "to": {
      "name": "parking_lot",
      "version": "0.12.1"
    },
    "range": ""
  },
  {
    "from": {
      "name": "crossterm",
      "version": "0.27.0"
    },
    "to": {
      "name": "serde",
      "version": "1.0.197"
    },
    "range": ""
  },
  {
    "from": {
      "name": "crossterm",
      "version": "0.27.0"
    },
    "to": {
      "name": "signal-hook",
      "version": "0.3.17"
    },
    "range": ""
  },
  {
    "from": {
      "name": "crossterm",
      "version": "0.27.0"
    },
    "to": {
      "name": "signal-hook-mio",
      "version": "0.2.3"
    },
    "range": ""
  },
  {
    "from": {
      "name": "crossterm",
      "version": "0.27.0"
    },
    "to": {
      "name": "winapi",
      "version": "0.3.9"
    },
    "range": ""
  },
  {
    "from": {
      "name": "crossterm_winapi",
      "version": "0.9.1"
    },
    "to": {
      "name": "winapi",
      "version": "0.3.9"
    },
    "range": ""
  },
  {
    "from": {
      "name": "dashmap",
      "version": "5.5.3"
    },
    "to": {
      "name": "cfg-if",
      "version": "1.0.0"
    },
    "range": ""
  },
  {
    "from": {
      "name": "dashmap",
      "version": "5.5.3"
    },
    "to": {
      "name": "hashbrown",
      "version": "0.14.3"
    },
    "range": ""
  },
  {
    "from": {
      "name": "dashmap",
      "version": "5.5.3"
    },
    "to": {
      "name": "lock_api",
      "version": "0.4.11"
    },
    "range": ""
  },
  {
    "from": {
      "name": "dashmap",
      "version": "5.5.3"
    },
    "to": {
      "name": "once_cell",
      "version": "1.19.0"
    },
    "range": ""
  },
  {
    "from": {
      "name": "dashmap",
      "version": "5.5.3"
    },
    "to": {
      "name": "parking_lot_core",
      "version": "0.9.9"
    },
    "range": ""
  },
  {
    "from": {
      "name": "dirs",
      "version": "5.0.1"
    },
    "to": {
      "name": "dirs-sys",
      "version": "0.4.1"
    },
    "range": ""
  },
  {
    "from": {
      "name": "dirs-sys",
      "version": "0.4.1"
    },
    "to": {
      "name": "libc",
      "version": "0.2.153"
    },
    "range": ""
  },
  {
    "from": {
      "name": "dirs-sys",
      "version": "0.4.1"
    },
    "to": {
      "name": "option-ext",
      "version": "0.2.0"
    },
    "range": ""
  },
  {
    "from": {
      "name": "dirs-sys",
      "version": "0.4.1"
    },
    "to": {
      "name": "redox_users",
      "version": "0.4.5"
    },
    "range": ""
  },
  {
    "from": {
      "name": "dirs-sys",
      "version": "0.4.1"
    },
    "to": {
      "name": "windows-sys",
      "version": "0.48.0"
    },
    "range": ""
  },
  {
    "from": {
      "name": "errno",
      "version": "0.3.8"
    },
    "to": {
      "name": "libc",
      "version": "0.2.153"
    },
    "range": ""
  },
  {
    "from": {
      "name": "errno",
      "version": "0.3.8"
    },
    "to": {
      "name": "windows-sys",
      "version": "0.52.0"
    },
    "range": ""
  },
  {
    "from": {
      "name": "float-cmp",
      "version": "0.9.0"
    },
    "to": {
      "name": "num-traits",
      "version": "0.2.18"
    },
    "range": ""
  },
  {
    "from": {
      "name": "form_urlencoded",
      "version": "1.2.1"
    },
    "to": {
      "name": "percent-encoding",
      "version": "2.3.1"
    },
    "range": ""
  },
  {
    "from": {
      "name": "futures",
      "version": "0.3.30"
    },
    "to": {
      "name": "futures-channel",
      "version": "0.3.30"
    },
    "range": ""
  },
  {
    "from": {
      "name": "futures",
      "version": "0.3.30"
    },
    "to": {
      "name": "futures-core",
      "version": "0.3.30"
    },
    "range": ""
  },
  {
    "from": {
      "name": "futures",
      "version": "0.3.30"
    },
    "to": {
      "name": "futures-executor",
      "version": "0.3.30"
    },
    "range": ""
  },
  {
    "from": {
      "name": "futures",
      "version": "0.3.30"
    },
    "to": {
      "name": "futures-io",
      "version": "0.3.30"
    },
    "range": ""
  },
  {
    "from": {
      "name": "futures",
      "version": "0.3.30"
    },
    "to": {
      "name": "futures-sink",
      "version": "0.3.30"
    },
    "range": ""
  },
  {
    "from": {
      "name": "futures",
      "version": "0.3.30"
    },
    "to": {
      "name": "futures-task",
      "version": "0.3.30"
    },
    "range": ""
  },
  {
    "from": {
      "name": "futures",
      "version": "0.3.30"
    },
    "to": {
      "name": "futures-util",
      "version": "0.3.30"
    },
    "range": ""
  },
  {
    "from": {
      "name": "futures-channel",
      "version": "0.3.30"
    },
    "to": {
      "name": "futures-core",
      "version": "0.3.30"
    },
    "range": ""
  },
  {
    "from": {
      "name": "futures-channel",
      "version": "0.3.30"
    },
    "to": {
      "name": "futures-sink",
      "version": "0.3.30"
    },
    "range": ""
  },
  {
    "from": {
      "name": "futures-executor",
      "version": "0.3.30"
    },
    "to": {
      "name": "futures-core",
      "version": "0.3.30"
    },
    "range": ""
  },
  {
    "from": {
      "name": "futures-executor",
      "version": "0.3.30"
    },
    "to": {
      "name": "futures-task",
      "version": "0.3.30"
    },
    "range": ""
  },
  {
    "from": {
      "name": "futures-executor",
      "version": "0.3.30"
    },
    "to": {
      "name": "futures-util",
      "version": "0.3.30"
    },
    "range": ""
  },
  {
    "from": {
      "name": "futures-util",
      "version": "0.3.30"
    },
    "to": {
      "name": "futures-channel",
      "version": "0.3.30"
    },
    "range": ""
  },
  {
    "from": {
      "name": "futures-util",
      "version": "0.3.30"
    },
    "to": {
      "name": "futures-core",
      "version": "0.3.30"
    },
    "range": ""
  },
  {
    "from": {
      "name": "futures-util",
      "version": "0.3.30"
    },
    "to": {
      "name": "futures-io",
      "version": "0.3.30"
    },
    "range": ""
  },
  {
    "from": {
      "name": "futures-util",
      "version": "0.3.30"
    },
    "to": {
      "name": "futures-sink",
      "version": "0.3.30"
    },
    "range": ""
  },
  {
    "from": {
      "name": "futures-util",
      "version": "0.3.30"
    },
    "to": {
      "name": "futures-task",
      "version": "0.3.30"
    },
    "range": ""
  },
  {
    "from": {
      "name": "futures-util",
      "version": "0.3.30"
    },
    "to": {
      "name": "memchr",
      "version": "2.7.2"
    },
    "range": ""
  },
  {
    "from": {
      "name": "futures-util",
      "version": "0.3.30"
    },
    "to": {
      "name": "pin-project-lite",
      "version": "0.2.14"
    },
    "range": ""
  },
  {
    "from": {
      "name": "futures-util",
      "version": "0.3.30"
    },
    "to": {
      "name": "pin-utils",
      "version": "0.1.0"
    },
    "range": ""
  },
  {
    "from": {
      "name": "futures-util",
      "version": "0.3.30"
    },
    "to": {
      "name": "slab",
      "version": "0.4.9"
    },
    "range": ""
  },
  {
    "from": {
      "name": "getrandom",
      "version": "0.2.12"
    },
    "to": {
      "name": "cfg-if",
      "version": "1.0.0"
    },
    "range": ""
  },
  {
    "from": {
      "name": "getrandom",
      "version": "0.2.12"
    },
    "to": {
      "name": "libc",
      "version": "0.2.153"
    },
    "range": ""
  },
  {
    "from": {
      "name": "getrandom",
      "version": "0.2.12"
    },
    "to": {
      "name": "wasi",
      "version": "0.11.0+wasi-snapshot-preview1"
    },
    "range": ""
  },
  {
    "from": {
      "name": "git2",
      "version": "0.18.3"
    },
    "to": {
      "name": "bitflags",
      "version": "2.5.0"
    },
    "range": ""
  },
  {
    "from": {
      "name": "git2",
      "version": "0.18.3"
    },
    "to": {
      "name": "libc",
      "version": "0.2.153"
    },
    "range": ""
  },
  {
    "from": {
      "name": "git2",
      "version": "0.18.3"
    },
    "to": {
      "name": "libgit2-sys",
      "version": "0.16.2+1.7.2"
    },
    "range": ""
  },
  {
    "from": {
      "name": "git2",
      "version": "0.18.3"
    },
    "to": {
      "name": "log",
      "version": "0.4.21"
    },
    "range": ""
  },
  {
    "from": {
      "name": "git2",
      "version": "0.18.3"
    },
    "to": {
      "name": "url",
      "version": "2.5.0"
    },
    "range": ""
  },
  {
    "from": {
      "name": "globset",
      "version": "0.4.14"
    },
    "to": {
      "name": "aho-corasick",
      "version": "1.1.3"
    },
    "range": ""
  },
  {
    "from": {
      "name": "globset",
      "version": "0.4.14"
    },
    "to": {
      "name": "bstr",
      "version": "1.9.1"
    },
    "range": ""
  },
  {
    "from": {
      "name": "globset",
      "version": "0.4.14"
    },
    "to": {
      "name": "log",
      "version": "0.4.21"
    },
    "range": ""
  },
  {
    "from": {
      "name": "globset",
      "version": "0.4.14"
    },
    "to": {
      "name": "regex-automata",
      "version": "0.4.6"
    },
    "range": ""
  },
  {
    "from": {
      "name": "globset",
      "version": "0.4.14"
    },
    "to": {
      "name": "regex-syntax",
      "version": "0.8.3"
    },
    "range": ""
  },
  {
    "from": {
      "name": "globwalk",
      "version": "0.9.1"
    },
    "to": {
      "name": "bitflags",
      "version": "2.5.0"
    },
    "range": ""
  },
  {
    "from": {
      "name": "globwalk",
      "version": "0.9.1"
    },
    "to": {
      "name": "ignore",
      "version": "0.4.22"
    },
    "range": ""
  },
  {
    "from": {
      "name": "globwalk",
      "version": "0.9.1"
    },
    "to": {
      "name": "walkdir",
      "version": "2.5.0"
    },
    "range": ""
  },
  {
    "from": {
      "name": "iana-time-zone",
      "version": "0.1.60"
    },
    "to": {
      "name": "android_system_properties",
      "version": "0.1.5"
    },
    "range": ""
  },
  {
    "from": {
      "name": "iana-time-zone",
      "version": "0.1.60"
    },
    "to": {
      "name": "core-foundation-sys",
      "version": "0.8.6"
    },
    "range": ""
  },
  {
    "from": {
      "name": "iana-time-zone",
      "version": "0.1.60"
    },
    "to": {
      "name": "iana-time-zone-haiku",
      "version": "0.1.2"
    },
    "range": ""
  },
  {
    "from": {
      "name": "iana-time-zone",
      "version": "0.1.60"
    },
    "to": {
      "name": "js-sys",
      "version": "0.3.69"
    },
    "range": ""
  },
  {
    "from": {
      "name": "iana-time-zone",
      "version": "0.1.60"
    },
    "to": {
      "name": "wasm-bindgen",
      "version": "0.2.92"
    },
    "range": ""
  },
  {
    "from": {
      "name": "iana-time-zone",
      "version": "0.1.60"
    },
    "to": {
      "name": "windows-core",
      "version": "0.52.0"
    },
    "range": ""
  },
  {
    "from": {
      "name": "iana-time-zone-haiku",
      "version": "0.1.2"
    },
    "to": {
      "name": "cc",
      "version": "1.0.90"
    },
    "range": ""
  },
  {
    "from": {
      "name": "idna",
      "version": "0.5.0"
    },
    "to": {
      "name": "unicode-bidi",
      "version": "0.3.15"
    },
    "range": ""
  },
  {
    "from": {
      "name": "idna",
      "version": "0.5.0"
    },
    "to": {
      "name": "unicode-normalization",
      "version": "0.1.23"
    },
    "range": ""
  },
  {
    "from": {
      "name": "ignore",
      "version": "0.4.22"
    },
    "to": {
      "name": "crossbeam-deque",
      "version": "0.8.5"
    },
    "range": ""
  },
  {
    "from": {
      "name": "ignore",
      "version": "0.4.22"
    },
    "to": {
      "name": "globset",
      "version": "0.4.14"
    },
    "range": ""
  },
  {
    "from": {
      "name": "ignore",
      "version": "0.4.22"
    },
    "to": {
      "name": "log",
      "version": "0.4.21"
    },
    "range": ""
  },
  {
    "from": {
      "name": "ignore",
      "version": "0.4.22"
    },
    "to": {
      "name": "memchr",
      "version": "2.7.2"
    },
    "range": ""
  },
  {
    "from": {
      "name": "ignore",
      "version": "0.4.22"
    },
    "to": {
      "name": "regex-automata",
      "version": "0.4.6"
    },
    "range": ""
  },
  {
    "from": {
      "name": "ignore",
      "version": "0.4.22"
    },
    "to": {
      "name": "same-file",
      "version": "1.0.6"
    },
    "range": ""
  },
  {
    "from": {
      "name": "ignore",
      "version": "0.4.22"
    },
    "to": {
      "name": "walkdir",
      "version": "2.5.0"
    },
    "range": ""
  },
  {
    "from": {
      "name": "ignore",
      "version": "0.4.22"
    },
    "to": {
      "name": "winapi-util",
      "version": "0.1.6"
    },
    "range": ""
  },
  {
    "from": {
      "name": "indexmap",
      "version": "2.2.6"
    },
    "to": {
      "name": "equivalent",
      "version": "1.0.1"
    },
    "range": ""
  },
  {
    "from": {
      "name": "indexmap",
      "version": "2.2.6"
    },
    "to": {
      "name": "hashbrown",
      "version": "0.14.3"
    },
    "range": ""
  },
  {
    "from": {
      "name": "io-lifetimes",
      "version": "1.0.11"
    },
    "to": {
      "name": "hermit-abi",
      "version": "0.3.9"
    },
    "range": ""
  },
  {
    "from": {
      "name": "io-lifetimes",
      "version": "1.0.11"
    },
    "to": {
      "name": "libc",
      "version": "0.2.153"
    },
    "range": ""
  },
  {
    "from": {
      "name": "io-lifetimes",
      "version": "1.0.11"
    },
    "to": {
      "name": "windows-sys",
      "version": "0.48.0"
    },
    "range": ""
  },
  {
    "from": {
      "name": "is-terminal",
      "version": "0.4.12"
    },
    "to": {
      "name": "hermit-abi",
      "version": "0.3.9"
    },
    "range": ""
  },
  {
    "from": {
      "name": "is-terminal",
      "version": "0.4.12"
    },
    "to": {
      "name": "libc",
      "version": "0.2.153"
    },
    "range": ""
  },
  {
    "from": {
      "name": "is-terminal",
      "version": "0.4.12"
    },
    "to": {
      "name": "windows-sys",
      "version": "0.52.0"
    },
    "range": ""
  },
  {
    "from": {
      "name": "jobserver",
      "version": "0.1.28"
    },
    "to": {
      "name": "libc",
      "version": "0.2.153"
    },
    "range": ""
  },
  {
    "from": {
      "name": "js-sys",
      "version": "0.3.69"
    },
    "to": {
      "name": "wasm-bindgen",
      "version": "0.2.92"
    },
    "range": ""
  },
  {
    "from": {
      "name": "libgit2-sys",
      "version": "0.16.2+1.7.2"
    },
    "to": {
      "name": "cc",
      "version": "1.0.90"
    },
    "range": ""
  },
  {
    "from": {
      "name": "libgit2-sys",
      "version": "0.16.2+1.7.2"
    },
    "to": {
      "name": "libc",
      "version": "0.2.153"
    },
    "range": ""
  },
  {
    "from": {
      "name": "libgit2-sys",
      "version": "0.16.2+1.7.2"
    },
    "to": {
      "name": "libz-sys",
      "version": "1.1.16"
    },
    "range": ""
  },
  {
    "from": {
      "name": "libgit2-sys",
      "version": "0.16.2+1.7.2"
    },
    "to": {
      "name": "pkg-config",
      "version": "0.3.30"
    },
    "range": ""
  },
  {
    "from": {
      "name": "libredox",
      "version": "0.1.3"
    },
    "to": {
      "name": "bitflags",
      "version": "2.5.0"
    },
    "range": ""
  },
  {
    "from": {
      "name": "libredox",
      "version": "0.1.3"
    },
    "to": {
      "name": "libc",
      "version": "0.2.153"
    },
    "range": ""
  },
  {
    "from": {
      "name": "libz-sys",
      "version": "1.1.16"
    },
    "to": {
      "name": "cc",
      "version": "1.0.90"
    },
    "range": ""
  },
  {
    "from": {
      "name": "libz-sys",
      "version": "1.1.16"
    },
    "to": {
      "name": "libc",
      "version": "0.2.153"
    },
    "range": ""
  },
  {
    "from": {
      "name": "libz-sys",
      "version": "1.1.16"
    },
    "to": {
      "name": "pkg-config",
      "version": "0.3.30"
    },
    "range": ""
  },
  {
    "from": {
      "name": "libz-sys",
      "version": "1.1.16"
    },
    "to": {
      "name": "vcpkg",
      "version": "0.2.15"
    },
    "range": ""
  },
  {
    "from": {
      "name": "lock_api",
      "version": "0.4.11"
    },
    "to": {
      "name": "autocfg",
      "version": "1.2.0"
    },
    "range": ""
  },
  {
    "from": {
      "name": "lock_api",
      "version": "0.4.11"
    },
    "to": {
      "name": "scopeguard",
      "version": "1.2.0"
    },
    "range": ""
  },
  {
    "from": {
      "name": "lscolors",
      "version": "0.16.0"
    },
    "to": {
      "name": "nu-ansi-term",
      "version": "0.49.0"
    },
    "range": ""
  },
  {
    "from": {
      "name": "mio",
      "version": "0.8.11"
    },
    "to": {
      "name": "libc",
      "version": "0.2.153"
    },
    "range": ""
  },
  {
    "from": {
      "name": "mio",
      "version": "0.8.11"
    },
    "to": {
      "name": "log",
      "version": "0.4.21"
    },
    "range": ""
  },
  {
    "from": {
      "name": "mio",
      "version": "0.8.11"
    },
    "to": {
      "name": "wasi",
      "version": "0.11.0+wasi-snapshot-preview1"
    },
    "range": ""
  },
  {
    "from": {
      "name": "mio",
      "version": "0.8.11"
    },
    "to": {
      "name": "windows-sys",
      "version": "0.48.0"
    },
    "range": ""
  },
  {
    "from": {
      "name": "nu-ansi-term",
      "version": "0.49.0"
    },
    "to": {
      "name": "windows-sys",
      "version": "0.48.0"
    },
    "range": ""
  },
  {
    "from": {
      "name": "num-traits",
      "version": "0.2.18"
    },
    "to": {
      "name": "autocfg",
      "version": "1.2.0"
    },
    "range": ""
  },
  {
    "from": {
      "name": "parking_lot",
      "version": "0.12.1"
    },
    "to": {
      "name": "lock_api",
      "version": "0.4.11"
    },
    "range": ""
  },
  {
    "from": {
      "name": "parking_lot",
      "version": "0.12.1"
    },
    "to": {
      "name": "parking_lot_core",
      "version": "0.9.9"
    },
    "range": ""
  },
  {
    "from": {
      "name": "parking_lot_core",
      "version": "0.9.9"
    },
    "to": {
      "name": "cfg-if",
      "version": "1.0.0"
    },
    "range": ""
  },
  {
    "from": {
      "name": "parking_lot_core",
      "version": "0.9.9"
    },
    "to": {
      "name": "libc",
      "version": "0.2.153"
    },
    "range": ""
  },
  {
    "from": {
      "name": "parking_lot_core",
      "version": "0.9.9"
    },
    "to": {
      "name": "redox_syscall",
      "version": "0.4.1"
    },
    "range": ""
  },
  {
    "from": {
      "name": "parking_lot_core",
      "version": "0.9.9"
    },
    "to": {
      "name": "smallvec",
      "version": "1.13.2"
    },
    "range": ""
  },
  {
    "from": {
      "name": "parking_lot_core",
      "version": "0.9.9"
    },
    "to": {
      "name": "windows-targets",
      "version": "0.48.5"
    },
    "range": ""
  },
  {
    "from": {
      "name": "predicates",
      "version": "3.1.0"
    },
    "to": {
      "name": "anstyle",
      "version": "1.0.6"
    },
    "range": ""
  },
  {
    "from": {
      "name": "predicates",
      "version": "3.1.0"
    },
    "to": {
      "name": "difflib",
      "version": "0.4.0"
    },
    "range": ""
  },
  {
    "from": {
      "name": "predicates",
      "version": "3.1.0"
    },
    "to": {
      "name": "float-cmp",
      "version": "0.9.0"
    },
    "range": ""
  },
  {
    "from": {
      "name": "predicates",
      "version": "3.1.0"
    },
    "to": {
      "name": "normalize-line-endings",
      "version": "0.3.0"
    },
    "range": ""
  },
  {
    "from": {
      "name": "predicates",
      "version": "3.1.0"
    },
    "to": {
      "name": "predicates-core",
      "version": "1.0.6"
    },
    "range": ""
  },
  {
    "from": {
      "name": "predicates",
      "version": "3.1.0"
    },
    "to": {
      "name": "regex",
      "version": "1.10.4"
    },
    "range": ""
  },
  {
    "from": {
      "name": "predicates-tree",
      "version": "1.0.9"
    },
    "to": {
      "name": "predicates-core",
      "version": "1.0.6"
    },
    "range": ""
  },
  {
    "from": {
      "name": "predicates-tree",
      "version": "1.0.9"
    },
    "to": {
      "name": "termtree",
      "version": "0.4.1"
    },
    "range": ""
  },
  {
    "from": {
      "name": "proc-macro2",
      "version": "1.0.79"
    },
    "to": {
      "name": "unicode-ident",
      "version": "1.0.12"
    },
    "range": ""
  },
  {
    "from": {
      "name": "quote",
      "version": "1.0.35"
    },
    "to": {
      "name": "proc-macro2",
      "version": "1.0.79"
    },
    "range": ""
  },
  {
    "from": {
      "name": "redox_syscall",
      "version": "0.4.1"
    },
    "to": {
      "name": "bitflags",
      "version": "1.3.2"
    },
    "range": ""
  },
  {
    "from": {
      "name": "redox_users",
      "version": "0.4.5"
    },
    "to": {
      "name": "getrandom",
      "version": "0.2.12"
    },
    "range": ""
  },
  {
    "from": {
      "name": "redox_users",
      "version": "0.4.5"
    },
    "to": {
      "name": "libredox",
      "version": "0.1.3"
    },
    "range": ""
  },
  {
    "from": {
      "name": "redox_users",
      "version": "0.4.5"
    },
    "to": {
      "name": "thiserror",
      "version": "1.0.58"
    },
    "range": ""
  },
  {
    "from": {
      "name": "regex",
      "version": "1.10.4"
    },
    "to": {
      "name": "aho-corasick",
      "version": "1.1.3"
    },
    "range": ""
  },
  {
    "from": {
      "name": "regex",
      "version": "1.10.4"
    },
    "to": {
      "name": "memchr",
      "version": "2.7.2"
    },
    "range": ""
  },
  {
    "from": {
      "name": "regex",
      "version": "1.10.4"
    },
    "to": {
      "name": "regex-automata",
      "version": "0.4.6"
    },
    "range": ""
  },
  {
    "from": {
      "name": "regex",
      "version": "1.10.4"
    },
    "to": {
      "name": "regex-syntax",
      "version": "0.8.3"
    },
    "range": ""
  },
  {
    "from": {
      "name": "regex-automata",
      "version": "0.4.6"
    },
    "to": {
      "name": "aho-corasick",
      "version": "1.1.3"
    },
    "range": ""
  },
  {
    "from": {
      "name": "regex-automata",
      "version": "0.4.6"
    },
    "to": {
      "name": "memchr",
      "version": "2.7.2"
    },
    "range": ""
  },
  {
    "from": {
      "name": "regex-automata",
      "version": "0.4.6"
    },
    "to": {
      "name": "regex-syntax",
      "version": "0.8.3"
    },
    "range": ""
  },
  {
    "from": {
      "name": "rustix",
      "version": "0.37.27"
    },
    "to": {
      "name": "bitflags",
      "version": "1.3.2"
    },
    "range": ""
  },
  {
    "from": {
      "name": "rustix",
      "version": "0.37.27"
    },
    "to": {
      "name": "errno",
      "version": "0.3.8"
    },
    "range": ""
  },
  {
    "from": {
      "name": "rustix",
      "version": "0.37.27"
    },
    "to": {
      "name": "io-lifetimes",
      "version": "1.0.11"
    },
    "range": ""
  },
  {
    "from": {
      "name": "rustix",
      "version": "0.37.27"
    },
    "to": {
      "name": "libc",
      "version": "0.2.153"
    },
    "range": ""
  },
  {
    "from": {
      "name": "rustix",
      "version": "0.37.27"
    },
    "to": {
      "name": "linux-raw-sys",
      "version": "0.3.8"
    },
    "range": ""
  },
  {
    "from": {
      "name": "rustix",
      "version": "0.37.27"
    },
    "to": {
      "name": "windows-sys",
      "version": "0.48.0"
    },
    "range": ""
  },
  {
    "from": {
      "name": "rustix",
      "version": "0.38.32"
    },
    "to": {
      "name": "bitflags",
      "version": "2.5.0"
    },
    "range": ""
  },
  {
    "from": {
      "name": "rustix",
      "version": "0.38.32"
    },
    "to": {
      "name": "errno",
      "version": "0.3.8"
    },
    "range": ""
  },
  {
    "from": {
      "name": "rustix",
      "version": "0.38.32"
    },
    "to": {
      "name": "libc",
      "version": "0.2.153"
    },
    "range": ""
  },
  {
    "from": {
      "name": "rustix",
      "version": "0.38.32"
    },
    "to": {
      "name": "linux-raw-sys",
      "version": "0.4.13"
    },
    "range": ""
  },
  {
    "from": {
      "name": "rustix",
      "version": "0.38.32"
    },
    "to": {
      "name": "windows-sys",
      "version": "0.52.0"
    },
    "range": ""
  },
  {
    "from": {
      "name": "same-file",
      "version": "1.0.6"
    },
    "to": {
      "name": "winapi-util",
      "version": "0.1.6"
    },
    "range": ""
  },
  {
    "from": {
      "name": "serde",
      "version": "1.0.197"
    },
    "to": {
      "name": "serde_derive",
      "version": "1.0.197"
    },
    "range": ""
  },
  {
    "from": {
      "name": "serde_derive",
      "version": "1.0.197"
    },
    "to": {
      "name": "proc-macro2",
      "version": "1.0.79"
    },
    "range": ""
  },
  {
    "from": {
      "name": "serde_derive",
      "version": "1.0.197"
    },
    "to": {
      "name": "quote",
      "version": "1.0.35"
    },
    "range": ""
  },
  {
    "from": {
      "name": "serde_derive",
      "version": "1.0.197"
    },
    "to": {
      "name": "syn",
      "version": "2.0.57"
    },
    "range": ""
  },
  {
    "from": {
      "name": "serde_yaml",
      "version": "0.9.34+deprecated"
    },
    "to": {
      "name": "indexmap",
      "version": "2.2.6"
    },
    "range": ""
  },
  {
    "from": {
      "name": "serde_yaml",
      "version": "0.9.34+deprecated"
    },
    "to": {
      "name": "itoa",
      "version": "1.0.11"
    },
    "range": ""
  },
  {
    "from": {
      "name": "serde_yaml",
      "version": "0.9.34+deprecated"
    },
    "to": {
      "name": "ryu",
      "version": "1.0.17"
    },
    "range": ""
  },
  {
    "from": {
      "name": "serde_yaml",
      "version": "0.9.34+deprecated"
    },
    "to": {
      "name": "serde",
      "version": "1.0.197"
    },
    "range": ""
  },
  {
    "from": {
      "name": "serde_yaml",
      "version": "0.9.34+deprecated"
    },
    "to": {
      "name": "unsafe-libyaml",
      "version": "0.2.11"
    },
    "range": ""
  },
  {
    "from": {
      "name": "serial_test",
      "version": "2.0.0"
    },
    "to": {
      "name": "dashmap",
      "version": "5.5.3"
    },
    "range": ""
  },
  {
    "from": {
      "name": "serial_test",
      "version": "2.0.0"
    },
    "to": {
      "name": "futures",
      "version": "0.3.30"
    },
    "range": ""
  },
  {
    "from": {
      "name": "serial_test",
      "version": "2.0.0"
    },
    "to": {
      "name": "lazy_static",
      "version": "1.4.0"
    },
    "range": ""
  },
  {
    "from": {
      "name": "serial_test",
      "version": "2.0.0"
    },
    "to": {
      "name": "log",
      "version": "0.4.21"
    },
    "range": ""
  },
  {
    "from": {
      "name": "serial_test",
      "version": "2.0.0"
    },
    "to": {
      "name": "parking_lot",
      "version": "0.12.1"
    },
    "range": ""
  },
  {
    "from": {
      "name": "serial_test",
      "version": "2.0.0"
    },
    "to": {
      "name": "serial_test_derive",
      "version": "2.0.0"
    },
    "range": ""
  },
  {
    "from": {
      "name": "serial_test_derive",
      "version": "2.0.0"
    },
    "to": {
      "name": "proc-macro2",
      "version": "1.0.79"
    },
    "range": ""
  },
  {
    "from": {
      "name": "serial_test_derive",
      "version": "2.0.0"
    },
    "to": {
      "name": "quote",
      "version": "1.0.35"
    },
    "range": ""
  },
  {
    "from": {
      "name": "serial_test_derive",
      "version": "2.0.0"
    },
    "to": {
      "name": "syn",
      "version": "2.0.57"
    },
    "range": ""
  },
  {
    "from": {
      "name": "signal-hook",
      "version": "0.3.17"
    },
    "to": {
      "name": "libc",
      "version": "0.2.153"
    },
    "range": ""
  },
  {
    "from": {
      "name": "signal-hook",
      "version": "0.3.17"
    },
    "to": {
      "name": "signal-hook-registry",
      "version": "1.4.1"
    },
    "range": ""
  },
  {
    "from": {
      "name": "signal-hook-mio",
      "version": "0.2.3"
    },
    "to": {
      "name": "libc",
      "version": "0.2.153"
    },
    "range": ""
  },
  {
    "from": {
      "name": "signal-hook-mio",
      "version": "0.2.3"
    },
    "to": {
      "name": "mio",
      "version": "0.8.11"
    },
    "range": ""
  },
  {
    "from": {
      "name": "signal-hook-mio",
      "version": "0.2.3"
    },
    "to": {
      "name": "signal-hook",
      "version": "0.3.17"
    },
    "range": ""
  },
  {
    "from": {
      "name": "signal-hook-registry",
      "version": "1.4.1"
    },
    "to": {
      "name": "libc",
      "version": "0.2.153"
    },
    "range": ""
  },
  {
    "from": {
      "name": "slab",
      "version": "0.4.9"
    },
    "to": {
      "name": "autocfg",
      "version": "1.2.0"
    },
    "range": ""
  },
  {
    "from": {
      "name": "syn",
      "version": "2.0.57"
    },
    "to": {
      "name": "proc-macro2",
      "version": "1.0.79"
    },
    "range": ""
  },
  {
    "from": {
      "name": "syn",
      "version": "2.0.57"
    },
    "to": {
      "name": "quote",
      "version": "1.0.35"
    },
    "range": ""
  },
  {
    "from": {
      "name": "syn",
      "version": "2.0.57"
    },
    "to": {
      "name": "unicode-ident",
      "version": "1.0.12"
    },
    "range": ""
  },
  {
    "from": {
      "name": "sys-locale",
      "version": "0.3.1"
    },
    "to": {
      "name": "libc",
      "version": "0.2.153"
    },
    "range": ""
  },
  {
    "from": {
      "name": "tempfile",
      "version": "3.10.1"
    },
    "to": {
      "name": "cfg-if",
      "version": "1.0.0"
    },
    "range": ""
  },
  {
    "from": {
      "name": "tempfile",
      "version": "3.10.1"
    },
    "to": {
      "name": "fastrand",
      "version": "2.0.2"
    },
    "range": ""
  },
  {
    "from": {
      "name": "tempfile",
      "version": "3.10.1"
    },
    "to": {
      "name": "rustix",
      "version": "0.38.32"
    },
    "range": ""
  },
  {
    "from": {
      "name": "tempfile",
      "version": "3.10.1"
    },
    "to": {
      "name": "windows-sys",
      "version": "0.52.0"
    },
    "range": ""
  },
  {
    "from": {
      "name": "term_grid",
      "version": "0.1.7"
    },
    "to": {
      "name": "unicode-width",
      "version": "0.1.11"
    },
    "range": ""
  },
  {
    "from": {
      "name": "terminal_size",
      "version": "0.2.6"
    },
    "to": {
      "name": "rustix",
      "version": "0.37.27"
    },
    "range": ""
  },
  {
    "from": {
      "name": "terminal_size",
      "version": "0.2.6"
    },
    "to": {
      "name": "windows-sys",
      "version": "0.48.0"
    },
    "range": ""
  },
  {
    "from": {
      "name": "terminal_size",
      "version": "0.3.0"
    },
    "to": {
      "name": "rustix",
      "version": "0.38.32"
    },
    "range": ""
  },
  {
    "from": {
      "name": "terminal_size",
      "version": "0.3.0"
    },
    "to": {
      "name": "windows-sys",
      "version": "0.48.0"
    },
    "range": ""
  },
  {
    "from": {
      "name": "thiserror",
      "version": "1.0.58"
    },
    "to": {
      "name": "thiserror-impl",
      "version": "1.0.58"
    },
    "range": ""
  },
  {
    "from": {
      "name": "thiserror-impl",
      "version": "1.0.58"
    },
    "to": {
      "name": "proc-macro2",
      "version": "1.0.79"
    },
    "range": ""
  },
  {
    "from": {
      "name": "thiserror-impl",
      "version": "1.0.58"
    },
    "to": {
      "name": "quote",
      "version": "1.0.35"
    },
    "range": ""
  },
  {
    "from": {
      "name": "thiserror-impl",
      "version": "1.0.58"
    },
    "to": {
      "name": "syn",
      "version": "2.0.57"
    },
    "range": ""
  },
  {
    "from": {
      "name": "tinyvec",
      "version": "1.6.0"
    },
    "to": {
      "name": "tinyvec_macros",
      "version": "0.1.1"
    },
    "range": ""
  },
  {
    "from": {
      "name": "unicode-normalization",
      "version": "0.1.23"
    },
    "to": {
      "name": "tinyvec",
      "version": "1.6.0"
    },
    "range": ""
  },
  {
    "from": {
      "name": "url",
      "version": "2.5.0"
    },
    "to": {
      "name": "form_urlencoded",
      "version": "1.2.1"
    },
    "range": ""
  },
  {
    "from": {
      "name": "url",
      "version": "2.5.0"
    },
    "to": {
      "name": "idna",
      "version": "0.5.0"
    },
    "range": ""
  },
  {
    "from": {
      "name": "url",
      "version": "2.5.0"
    },
    "to": {
      "name": "percent-encoding",
      "version": "2.3.1"
    },
    "range": ""
  },
  {
    "from": {
      "name": "uzers",
      "version": "0.11.3"
    },
    "to": {
      "name": "libc",
      "version": "0.2.153"
    },
    "range": ""
  },
  {
    "from": {
      "name": "uzers",
      "version": "0.11.3"
    },
    "to": {
      "name": "log",
      "version": "0.4.21"
    },
    "range": ""
  },
  {
    "from": {
      "name": "wait-timeout",
      "version": "0.2.0"
    },
    "to": {
      "name": "libc",
      "version": "0.2.153"
    },
    "range": ""
  },
  {
    "from": {
      "name": "walkdir",
      "version": "2.5.0"
    },
    "to": {
      "name": "same-file",
      "version": "1.0.6"
    },
    "range": ""
  },
  {
    "from": {
      "name": "walkdir",
      "version": "2.5.0"
    },
    "to": {
      "name": "winapi-util",
      "version": "0.1.6"
    },
    "range": ""
  },
  {
    "from": {
      "name": "wasm-bindgen",
      "version": "0.2.92"
    },
    "to": {
      "name": "cfg-if",
      "version": "1.0.0"
    },
    "range": ""
  },
  {
    "from": {
      "name": "wasm-bindgen",
      "version": "0.2.92"
    },
    "to": {
      "name": "wasm-bindgen-macro",
      "version": "0.2.92"
    },
    "range": ""
  },
  {
    "from": {
      "name": "wasm-bindgen-backend",
      "version": "0.2.92"
    },
    "to": {
      "name": "bumpalo",
      "version": "3.15.4"
    },
    "range": ""
  },
  {
    "from": {
      "name": "wasm-bindgen-backend",
      "version": "0.2.92"
    },
    "to": {
      "name": "log",
      "version": "0.4.21"
    },
    "range": ""
  },
  {
    "from": {
      "name": "wasm-bindgen-backend",
      "version": "0.2.92"
    },
    "to": {
      "name": "once_cell",
      "version": "1.19.0"
    },
    "range": ""
  },
  {
    "from": {
      "name": "wasm-bindgen-backend",
      "version": "0.2.92"
    },
    "to": {
      "name": "proc-macro2",
      "version": "1.0.79"
    },
    "range": ""
  },
  {
    "from": {
      "name": "wasm-bindgen-backend",
      "version": "0.2.92"
    },
    "to": {
      "name": "quote",
      "version": "1.0.35"
    },
    "range": ""
  },
  {
    "from": {
      "name": "wasm-bindgen-backend",
      "version": "0.2.92"
    },
    "to": {
      "name": "syn",
      "version": "2.0.57"
    },
    "range": ""
  },
  {
    "from": {
      "name": "wasm-bindgen-backend",
      "version": "0.2.92"
    },
    "to": {
      "name": "wasm-bindgen-shared",
      "version": "0.2.92"
    },
    "range": ""
  },
  {
    "from": {
      "name": "wasm-bindgen-macro",
      "version": "0.2.92"
    },
    "to": {
      "name": "quote",
      "version": "1.0.35"
    },
    "range": ""
  },
  {
    "from": {
      "name": "wasm-bindgen-macro",
      "version": "0.2.92"
    },
    "to": {
      "name": "wasm-bindgen-macro-support",
      "version": "0.2.92"
    },
    "range": ""
  },
  {
    "from": {
      "name": "wasm-bindgen-macro-support",
      "version": "0.2.92"
    },
    "to": {
      "name": "proc-macro2",
      "version": "1.0.79"
    },
    "range": ""
  },
  {
    "from": {
      "name": "wasm-bindgen-macro-support",
      "version": "0.2.92"
    },
    "to": {
      "name": "quote",
      "version": "1.0.35"
    },
    "range": ""
  },
  {
    "from": {
      "name": "wasm-bindgen-macro-support",
      "version": "0.2.92"
    },
    "to": {
      "name": "syn",
      "version": "2.0.57"
    },
    "range": ""
  },
  {
    "from": {
      "name": "wasm-bindgen-macro-support",
      "version": "0.2.92"
    },
    "to": {
      "name": "wasm-bindgen-backend",
      "version": "0.2.92"
    },
    "range": ""
  },
  {
    "from": {
      "name": "wasm-bindgen-macro-support",
      "version": "0.2.92"
    },
    "to": {
      "name": "wasm-bindgen-shared",
      "version": "0.2.92"
    },
    "range": ""
  },
  {
    "from": {
      "name": "wild",
      "version": "2.2.1"
    },
    "to": {
      "name": "glob",
      "version": "0.3.1"
    },
    "range": ""
  },
  {
    "from": {
      "name": "winapi",
      "version": "0.3.9"
    },
    "to": {
      "name": "winapi-i686-pc-windows-gnu",
      "version": "0.4.0"
    },
    "range": ""
  },
  {
    "from": {
      "name": "winapi",
      "version": "0.3.9"
    },
    "to": {
      "name": "winapi-x86_64-pc-windows-gnu",
      "version": "0.4.0"
    },
    "range": ""
  },
  {
    "from": {
      "name": "winapi-util",
      "version": "0.1.6"
    },
    "to": {
      "name": "winapi",
      "version": "0.3.9"
    },
    "range": ""
  },
  {
    "from": {
      "name": "windows",
      "version": "0.43.0"
    },
    "to": {
      "name": "windows_aarch64_gnullvm",
      "version": "0.42.2"
    },
    "range": ""
  },
  {
    "from": {
      "name": "windows",
      "version": "0.43.0"
    },
    "to": {
      "name": "windows_aarch64_msvc",
      "version": "0.42.2"
    },
    "range": ""
  },
  {
    "from": {
      "name": "windows",
      "version": "0.43.0"
    },
    "to": {
      "name": "windows_i686_gnu",
      "version": "0.42.2"
    },
    "range": ""
  },
  {
    "from": {
      "name": "windows",
      "version": "0.43.0"
    },
    "to": {
      "name": "windows_i686_msvc",
      "version": "0.42.2"
    },
    "range": ""
  },
  {
    "from": {
      "name": "windows",
      "version": "0.43.0"
    },
    "to": {
      "name": "windows_x86_64_gnu",
      "version": "0.42.2"
    },
    "range": ""
  },
  {
    "from": {
      "name": "windows",
      "version": "0.43.0"
    },
    "to": {
      "name": "windows_x86_64_gnullvm",
      "version": "0.42.2"
    },
    "range": ""
  },
  {
    "from": {
      "name": "windows",
      "version": "0.43.0"
    },
    "to": {
      "name": "windows_x86_64_msvc",
      "version": "0.42.2"
    },
    "range": ""
  },
  {
    "from": {
      "name": "windows-core",
      "version": "0.52.0"
    },
    "to": {
      "name": "windows-targets",
      "version": "0.52.4"
    },
    "range": ""
  },
  {
    "from": {
      "name": "windows-sys",
      "version": "0.48.0"
    },
    "to": {
      "name": "windows-targets",
      "version": "0.48.5"
    },
    "range": ""
  },
  {
    "from": {
      "name": "windows-sys",
      "version": "0.52.0"
    },
    "to": {
      "name": "windows-targets",
      "version": "0.52.4"
    },
    "range": ""
  },
  {
    "from": {
      "name": "windows-targets",
      "version": "0.48.5"
    },
    "to": {
      "name": "windows_aarch64_gnullvm",
      "version": "0.48.5"
    },
    "range": ""
  },
  {
    "from": {
      "name": "windows-targets",
      "version": "0.48.5"
    },
    "to": {
      "name": "windows_aarch64_msvc",
      "version": "0.48.5"
    },
    "range": ""
  },
  {
    "from": {
      "name": "windows-targets",
      "version": "0.48.5"
    },
    "to": {
      "name": "windows_i686_gnu",
      "version": "0.48.5"
    },
    "range": ""
  },
  {
    "from": {
      "name": "windows-targets",
      "version": "0.48.5"
    },
    "to": {
      "name": "windows_i686_msvc",
      "version": "0.48.5"
    },
    "range": ""
  },
  {
    "from": {
      "name": "windows-targets",
      "version": "0.48.5"
    },
    "to": {
      "name": "windows_x86_64_gnu",
      "version": "0.48.5"
    },
    "range": ""
  },
  {
    "from": {
      "name": "windows-targets",
      "version": "0.48.5"
    },
    "to": {
      "name": "windows_x86_64_gnullvm",
      "version": "0.48.5"
    },
    "range": ""
  },
  {
    "from": {
      "name": "windows-targets",
      "version": "0.48.5"
    },
    "to": {
      "name": "windows_x86_64_msvc",
      "version": "0.48.5"
    },
    "range": ""
  },
  {
    "from": {
      "name": "windows-targets",
      "version": "0.52.4"
    },
    "to": {
      "name": "windows_aarch64_gnullvm",
      "version": "0.52.4"
    },
    "range": ""
  },
  {
    "from": {
      "name": "windows-targets",
      "version": "0.52.4"
    },
    "to": {
      "name": "windows_aarch64_msvc",
      "version": "0.52.4"
    },
    "range": ""
  },
  {
    "from": {
      "name": "windows-targets",
      "version": "0.52.4"
    },
    "to": {
      "name": "windows_i686_gnu",
      "version": "0.52.4"
    },
    "range": ""
  },
  {
    "from": {
      "name": "windows-targets",
      "version": "0.52.4"
    },
    "to": {
      "name": "windows_i686_msvc",
      "version": "0.52.4"
    },
    "range": ""
  },
  {
    "from": {
      "name": "windows-targets",
      "version": "0.52.4"
    },
    "to": {
      "name": "windows_x86_64_gnu",
      "version": "0.52.4"
    },
    "range": ""
  },
  {
    "from": {
      "name": "windows-targets",
      "version": "0.52.4"
    },
    "to": {
      "name": "windows_x86_64_gnullvm",
      "version": "0.52.4"
    },
    "range": ""
  },
  {
    "from": {
      "name": "windows-targets",
      "version": "0.52.4"
    },
    "to": {
      "name": "windows_x86_64_msvc",
      "version": "0.52.4"
    },
    "range": ""
  },
  {
    "from": {
      "name": "xattr",
      "version": "1.3.1"
    },
    "to": {
      "name": "libc",
      "version": "0.2.153"
    },
    "range": ""
  },
  {
    "from": {
      "name": "xattr",
      "version": "1.3.1"
    },
    "to": {
      "name": "linux-raw-sys",
      "version": "0.4.13"
    },
    "range": ""
  },
  {
    "from": {
      "name": "xattr",
      "version": "1.3.1"
    },
    "to": {
      "name": "rustix",
      "version": "0.38.32"
    },
    "range": ""
  },
  {
    "from": {
      "name": "yaml-rust",
      "version": "0.4.5"
    },
    "to": {
      "name": "linked-hash-map",
      "version": "0.5.6"
    },
    "range": ""
  }
]
