[
  {
    "name": "aho-corasick",
    "version": "1.1.3"
  },
  {
    "name": "android-tzdata",
    "version": "0.1.1"
  },
  {
    "name": "android_system_properties",
    "version": "0.1.5"
  },
  {
    "name": "anstream",
    "version": "0.3.2"
  },
  {
    "name": "anstyle",
    "version": "1.0.6"
  },
  {
    "name": "anstyle-parse",
    "version": "0.2.3"
  },
  {
    "name": "anstyle-query",
    "version": "1.0.2"
  },
  {
    "name": "anstyle-wincon",
    "version": "1.0.2"
  },
  {
    "name": "assert_cmd",
    "version": "2.0.14"
  },
  {
    "name": "assert_fs",
    "version": "1.1.1"
  },
  {
    "name": "autocfg",
    "version": "1.2.0"
  },
  {
    "name": "bitflags",
    "version": "1.3.2"
  },
  {
    "name": "bitflags",
    "version": "2.5.0"
  },
  {
    "name": "bstr",
    "version": "1.9.1"
  },
  {
    "name": "bumpalo",
    "version": "3.15.4"
  },
  {
    "name": "cc",
    "version": "1.0.90"
  },
  {
    "name": "cfg-if",
    "version": "1.0.0"
  },
  {
    "name": "chrono",
    "version": "0.4.37"
  },
  {
    "name": "chrono-humanize",
    "version": "0.2.3"
  },
  {
    "name": "clap",
    "version": "4.3.24"
  },
  {
    "name": "clap_builder",
    "version": "4.3.24"
  },
  {
    "name": "clap_complete",
    "version": "4.5.1"
  },
  {
    "name": "clap_derive",
    "version": "4.3.12"
  },
  {
    "name": "clap_lex",
    "version": "0.5.1"
  },
  {
    "name": "colorchoice",
    "version": "1.0.0"
  },
  {
    "name": "core-foundation-sys",
    "version": "0.8.6"
  },
  {
    "name": "crossbeam-deque",
    "version": "0.8.5"
  },
  {
    "name": "crossbeam-epoch",
    "version": "0.9.18"
  },
  {
    "name": "crossbeam-utils",
    "version": "0.8.19"
  },
  {
    "name": "crossterm",
    "version": "0.27.0"
  },
  {
    "name": "crossterm_winapi",
    "version": "0.9.1"
  },
  {
    "name": "dashmap",
    "version": "5.5.3"
  },
  {
    "name": "difflib",
    "version": "0.4.0"
  },
  {
    "name": "dirs",
    "version": "5.0.1"
  },
  {
    "name": "dirs-sys",
    "version": "0.4.1"
  },
  {
    "name": "doc-comment",
    "version": "0.3.3"
  },
  {
    "name": "equivalent",
    "version": "1.0.1"
  },
  {
    "name": "errno",
    "version": "0.3.8"
  },
  {
    "name": "fastrand",
    "version": "2.0.2"
  },
  {
    "name": "float-cmp",
    "version": "0.9.0"
  },
  {
    "name": "form_urlencoded",
    "version": "1.2.1"
  },
  {
    "name": "futures",
    "version": "0.3.30"
  },
  {
    "name": "futures-channel",
    "version": "0.3.30"
  },
  {
    "name": "futures-core",
    "version": "0.3.30"
  },
  {
    "name": "futures-executor",
    "version": "0.3.30"
  },
  {
    "name": "futures-io",
    "version": "0.3.30"
  },
  {
    "name": "futures-sink",
    "version": "0.3.30"
  },
  {
    "name": "futures-task",
    "version": "0.3.30"
  },
  {
    "name": "futures-util",
    "version": "0.3.30"
  },
  {
    "name": "getrandom",
    "version": "0.2.12"
  },
  {
    "name": "git2",
    "version": "0.18.3"
  },
  {
    "name": "glob",
    "version": "0.3.1"
  },
  {
    "name": "globset",
    "version": "0.4.14"
  },
  {
    "name": "globwalk",
    "version": "0.9.1"
  },
  {
    "name": "hashbrown",
    "version": "0.14.3"
  },
  {
    "name": "heck",
    "version": "0.4.1"
  },
  {
    "name": "hermit-abi",
    "version": "0.3.9"
  },
  {
    "name": "human-sort",
    "version": "0.2.2"
  },
  {
    "name": "iana-time-zone",
    "version": "0.1.60"
  },
  {
    "name": "iana-time-zone-haiku",
    "version": "0.1.2"
  },
  {
    "name": "idna",
    "version": "0.5.0"
  },
  {
    "name": "ignore",
    "version": "0.4.22"
  },
  {
    "name": "indexmap",
    "version": "2.2.6"
  },
  {
    "name": "io-lifetimes",
    "version": "1.0.11"
  },
  {
    "name": "is-terminal",
    "version": "0.4.12"
  },
  {
    "name": "itoa",
    "version": "1.0.11"
  },
  {
    "name": "jobserver",
    "version": "0.1.28"
  },
  {
    "name": "js-sys",
    "version": "0.3.69"
  },
  {
    "name": "lazy_static",
    "version": "1.4.0"
  },
  {
    "name": "libc",
    "version": "0.2.153"
  },
  {
    "name": "libgit2-sys",
    "version": "0.16.2+1.7.2"
  },
  {
    "name": "libredox",
    "version": "0.1.3"
  },
  {
    "name": "libz-sys",
    "version": "1.1.16"
  },
  {
    "name": "linked-hash-map",
    "version": "0.5.6"
  },
  {
    "name": "linux-raw-sys",
    "version": "0.3.8"
  },
  {
    "name": "linux-raw-sys",
    "version": "0.4.13"
  },
  {
    "name": "lock_api",
    "version": "0.4.11"
  },
  {
    "name": "log",
    "version": "0.4.21"
  },
  {
    "name": "lscolors",
    "version": "0.16.0"
  },
  {
    "name": "memchr",
    "version": "2.7.2"
  },
  {
    "name": "mio",
    "version": "0.8.11"
  },
  {
    "name": "normalize-line-endings",
    "version": "0.3.0"
  },
  {
    "name": "nu-ansi-term",
    "version": "0.49.0"
  },
  {
    "name": "num-traits",
    "version": "0.2.18"
  },
  {
    "name": "once_cell",
    "version": "1.19.0"
  },
  {
    "name": "option-ext",
    "version": "0.2.0"
  },
  {
    "name": "parking_lot",
    "version": "0.12.1"
  },
  {
    "name": "parking_lot_core",
    "version": "0.9.9"
  },
  {
    "name": "percent-encoding",
    "version": "2.3.1"
  },
  {
    "name": "pin-project-lite",
    "version": "0.2.14"
  },
  {
    "name": "pin-utils",
    "version": "0.1.0"
  },
  {
    "name": "pkg-config",
    "version": "0.3.30"
  },
  {
    "name": "predicates",
    "version": "3.1.0"
  },
  {
    "name": "predicates-core",
    "version": "1.0.6"
  },
  {
    "name": "predicates-tree",
    "version": "1.0.9"
  },
  {
    "name": "proc-macro2",
    "version": "1.0.79"
  },
  {
    "name": "pure-rust-locales",
    "version": "0.8.1"
  },
  {
    "name": "quote",
    "version": "1.0.35"
  },
  {
    "name": "redox_syscall",
    "version": "0.4.1"
  },
  {
    "name": "redox_users",
    "version": "0.4.5"
  },
  {
    "name": "regex",
    "version": "1.10.4"
  },
  {
    "name": "regex-automata",
    "version": "0.4.6"
  },
  {
    "name": "regex-syntax",
    "version": "0.8.3"
  },
  {
    "name": "rustix",
    "version": "0.37.27"
  },
  {
    "name": "rustix",
    "version": "0.38.32"
  },
  {
    "name": "ryu",
    "version": "1.0.17"
  },
  {
    "name": "same-file",
    "version": "1.0.6"
  },
  {
    "name": "scopeguard",
    "version": "1.2.0"
  },
  {
    "name": "serde",
    "version": "1.0.197"
  },
  {
    "name": "serde_derive",
    "version": "1.0.197"
  },
  {
    "name": "serde_yaml",
    "version": "0.9.34+deprecated"
  },
  {
    "name": "serial_test",
    "version": "2.0.0"
  },
  {
    "name": "serial_test_derive",
    "version": "2.0.0"
  },
  {
    "name": "signal-hook",
    "version": "0.3.17"
  },
  {
    "name": "signal-hook-mio",
    "version": "0.2.3"
  },
  {
    "name": "signal-hook-registry",
    "version": "1.4.1"
  },
  {
    "name": "slab",
    "version": "0.4.9"
  },
  {
    "name": "smallvec",
    "version": "1.13.2"
  },
  {
    "name": "strsim",
    "version": "0.10.0"
  },
  {
    "name": "syn",
    "version": "2.0.57"
  },
  {
    "name": "sys-locale",
    "version": "0.3.1"
  },
  {
    "name": "tempfile",
    "version": "3.10.1"
  },
  {
    "name": "term_grid",
    "version": "0.1.7"
  },
  {
    "name": "terminal_size",
    "version": "0.2.6"
  },
  {
    "name": "terminal_size",
    "version": "0.3.0"
  },
  {
    "name": "termtree",
    "version": "0.4.1"
  },
  {
    "name": "thiserror",
    "version": "1.0.58"
  },
  {
    "name": "thiserror-impl",
    "version": "1.0.58"
  },
  {
    "name": "tinyvec",
    "version": "1.6.0"
  },
  {
    "name": "tinyvec_macros",
    "version": "0.1.1"
  },
  {
    "name": "unicode-bidi",
    "version": "0.3.15"
  },
  {
    "name": "unicode-ident",
    "version": "1.0.12"
  },
  {
    "name": "unicode-normalization",
    "version": "0.1.23"
  },
  {
    "name": "unicode-width",
    "version": "0.1.11"
  },
  {
    "name": "unsafe-libyaml",
    "version": "0.2.11"
  },
  {
    "name": "url",
    "version": "2.5.0"
  },
  {
    "name": "utf8parse",
    "version": "0.2.1"
  },
  {
    "name": "uzers",
    "version": "0.11.3"
  },
  {
    "name": "vcpkg",
    "version": "0.2.15"
  },
  {
    "name": "version_check",
    "version": "0.9.4"
  },
  {
    "name": "vsort",
    "version": "0.2.0"
  },
  {
    "name": "wait-timeout",
    "version": "0.2.0"
  },
  {
    "name": "walkdir",
    "version": "2.5.0"
  },
  {
    "name": "wasi",
    "version": "0.11.0+wasi-snapshot-preview1"
  },
  {
    "name": "wasm-bindgen",
    "version": "0.2.92"
  },
  {
    "name": "wasm-bindgen-backend",
    "version": "0.2.92"
  },
  {
    "name": "wasm-bindgen-macro",
    "version": "0.2.92"
  },
  {
    "name": "wasm-bindgen-macro-support",
    "version": "0.2.92"
  },
  {
    "name": "wasm-bindgen-shared",
    "version": "0.2.92"
  },
  {
    "name": "wild",
    "version": "2.2.1"
  },
  {
    "name": "winapi",
    "version": "0.3.9"
  },
  {
    "name": "winapi-i686-pc-windows-gnu",
    "version": "0.4.0"
  },
  {
    "name": "winapi-util",
    "version": "0.1.6"
  },
  {
    "name": "winapi-x86_64-pc-windows-gnu",
    "version": "0.4.0"
  },
  {
    "name": "windows",
    "version": "0.43.0"
  },
  {
    "name": "windows-core",
    "version": "0.52.0"
  },
  {
    "name": "windows-sys",
    "version": "0.48.0"
  },
  {
    "name": "windows-sys",
    "version": "0.52.0"
  },
  {
    "name": "windows-targets",
    "version": "0.48.5"
  },
  {
    "name": "windows-targets",
    "version": "0.52.4"
  },
  {
    "name": "windows_aarch64_gnullvm",
    "version": "0.42.2"
  },
  {
    "name": "windows_aarch64_gnullvm",
    "version": "0.48.5"
  },
  {
    "name": "windows_aarch64_gnullvm",
    "version": "0.52.4"
  },
  {
    "name": "windows_aarch64_msvc",
    "version": "0.42.2"
  },
  {
    "name": "windows_aarch64_msvc",
    "version": "0.48.5"
  },
  {
    "name": "windows_aarch64_msvc",
    "version": "0.52.4"
  },
  {
    "name": "windows_i686_gnu",
    "version": "0.42.2"
  },
  {
    "name": "windows_i686_gnu",
    "version": "0.48.5"
  },
  {
    "name": "windows_i686_gnu",
    "version": "0.52.4"
  },
  {
    "name": "windows_i686_msvc",
    "version": "0.42.2"
  },
  {
    "name": "windows_i686_msvc",
    "version": "0.48.5"
  },
  {
    "name": "windows_i686_msvc",
    "version": "0.52.4"
  },
  {
    "name": "windows_x86_64_gnu",
    "version": "0.42.2"
  },
  {
    "name": "windows_x86_64_gnu",
    "version": "0.48.5"
  },
  {
    "name": "windows_x86_64_gnu",
    "version": "0.52.4"
  },
  {
    "name": "windows_x86_64_gnullvm",
    "version": "0.42.2"
  },
  {
    "name": "windows_x86_64_gnullvm",
    "version": "0.48.5"
  },
  {
    "name": "windows_x86_64_gnullvm",
    "version": "0.52.4"
  },
  {
    "name": "windows_x86_64_msvc",
    "version": "0.42.2"
  },
  {
    "name": "windows_x86_64_msvc",
    "version": "0.48.5"
  },
  {
    "name": "windows_x86_64_msvc",
    "version": "0.52.4"
  },
  {
    "name": "xattr",
    "version": "1.3.1"
  },
  {
    "name": "xdg",
    "version": "2.5.2"
  },
  {
    "name": "yaml-rust",
    "version": "0.4.5"
  }
]
