module gitlab.com/gitlab-org/security-products/analyzers/gemnasium/v5

require (
	github.com/BurntSushi/toml v1.4.0
	github.com/google/uuid v1.6.0
	github.com/pandatix/go-cvss v0.6.2
	github.com/sirupsen/logrus v1.9.3
	github.com/stretchr/testify v1.10.0
	github.com/urfave/cli/v2 v2.27.5
	gitlab.com/gitlab-org/security-products/analyzers/command/v2 v2.4.0
	gitlab.com/gitlab-org/security-products/analyzers/common/v3 v3.4.0
	gitlab.com/gitlab-org/security-products/analyzers/dependency-scanning v0.14.0
	gitlab.com/gitlab-org/security-products/analyzers/report/v5 v5.7.0
	golang.org/x/exp v0.0.0-20241004190924-225e2abe05e6
	golang.org/x/mod v0.22.0
	gonum.org/v1/gonum v0.15.1
	gopkg.in/yaml.v3 v3.0.1
)

require (
	dario.cat/mergo v1.0.1 // indirect
	github.com/Microsoft/go-winio v0.6.2 // indirect
	github.com/ProtonMail/go-crypto v1.0.0 // indirect
	github.com/bmatcuk/doublestar v1.3.4 // indirect
	github.com/cloudflare/circl v1.4.0 // indirect
	github.com/cpuguy83/go-md2man/v2 v2.0.5 // indirect
	github.com/cyphar/filepath-securejoin v0.3.2 // indirect
	github.com/davecgh/go-spew v1.1.1 // indirect
	github.com/emirpasic/gods v1.18.1 // indirect
	github.com/go-git/gcfg v1.5.1-0.20230307220236-3a3c6141e376 // indirect
	github.com/go-git/go-billy/v5 v5.5.0 // indirect
	github.com/go-git/go-git/v5 v5.12.0 // indirect
	github.com/golang/groupcache v0.0.0-20210331224755-41bb18bfe9da // indirect
	github.com/jbenet/go-context v0.0.0-20150711004518-d14ea06fba99 // indirect
	github.com/kevinburke/ssh_config v1.2.0 // indirect
	github.com/otiai10/copy v1.14.0 // indirect
	github.com/pelletier/go-toml v1.9.5 // indirect
	github.com/pjbgf/sha1cd v0.3.0 // indirect
	github.com/pmezard/go-difflib v1.0.0 // indirect
	github.com/russross/blackfriday/v2 v2.1.0 // indirect
	github.com/sergi/go-diff v1.3.2-0.20230802210424-5b0b94c5c0d3 // indirect
	github.com/skeema/knownhosts v1.3.0 // indirect
	github.com/xanzy/ssh-agent v0.3.3 // indirect
	github.com/xrash/smetrics v0.0.0-20240521201337-686a1a2994c1 // indirect
	gitlab.com/gitlab-org/security-products/analyzers/report/v4 v4.4.0 // indirect
	gitlab.com/gitlab-org/security-products/analyzers/ruleset/v2 v2.0.9 // indirect
	gitlab.com/gitlab-org/security-products/analyzers/ruleset/v3 v3.2.0 // indirect
	golang.org/x/crypto v0.27.0 // indirect
	golang.org/x/net v0.29.0 // indirect
	golang.org/x/sync v0.8.0 // indirect
	golang.org/x/sys v0.25.0 // indirect
	gopkg.in/warnings.v0 v0.1.2 // indirect
	gopkg.in/yaml.v2 v2.4.0 // indirect
)

go 1.22.5

toolchain go1.22.10
