{
  "version": "15.0.4",
  "vulnerabilities": [
    {
      "id": "060530c8c53aea1a7e217ad42bd5097692a4ea5ed2eb2003f57642331e7b181d",
      "name": "OS Command Injection",
      "description": "The macaddress module is prone to an arbitrary command injection flaw, due to allowing unsanitized input to an exec (rather than `execFile`) call.",
      "severity": "Critical",
      "solution": "Unfortunately, there is no solution available yet.",
      "location": {
        "file": "javascript-project/package-lock.json",
        "dependency": {
          "package": {
            "name": "macaddress"
          },
          "version": "0.2.8"
        }
      },
      "identifiers": [
        {
          "type": "gemnasium",
          "name": "Gemnasium-a8d4fa16-d58d-44e0-ab03-f35abce79c94",
          "value": "a8d4fa16-d58d-44e0-ab03-f35abce79c94",
          "url": "https://gitlab.com/gitlab-org/security-products/gemnasium-db/-/blob/v1.2.142/npm/macaddress/CVE-2018-13797.yml"
        },
        {
          "type": "cve",
          "name": "CVE-2018-13797",
          "value": "CVE-2018-13797",
          "url": "https://cve.mitre.org/cgi-bin/cvename.cgi?name=CVE-2018-13797"
        }
      ],
      "links": [
        {
          "url": "https://nvd.nist.gov/vuln/detail/CVE-2018-13797"
        }
      ],
      "details": {
        "vulnerable_package": {
          "name": "Vulnerable Package",
          "type": "text",
          "value": "macaddress:0.2.8"
        }
      }
    },
    {
      "id": "d92c28fa0938ce95b7fc88aa6fc257e40a311a779068a8d94f7903a0e3a074b7",
      "name": "Out-of-bounds Write",
      "description": "This issue was discovered in the context of an out-of-bound write that occurred when patching an Openshift object using the 'oc patch' functionality.",
      "severity": "High",
      "solution": "Upgrade to version 4.4.0 or above.",
      "location": {
        "file": "go-project/go.sum",
        "dependency": {
          "package": {
            "name": "github.com/evanphx/json-patch"
          },
          "version": "v4.2.0"
        }
      },
      "identifiers": [
        {
          "type": "gemnasium",
          "name": "Gemnasium-f1abd8e9-0ce4-4130-91ca-5e1f8702ff52",
          "value": "f1abd8e9-0ce4-4130-91ca-5e1f8702ff52",
          "url": "https://gitlab.com/gitlab-org/security-products/gemnasium-db/-/blob/v1.2.142/go/github.com/evanphx/json-patch/CVE-2018-14632.yml"
        },
        {
          "type": "cve",
          "name": "CVE-2018-14632",
          "value": "CVE-2018-14632",
          "url": "https://cve.mitre.org/cgi-bin/cvename.cgi?name=CVE-2018-14632"
        }
      ],
      "links": [
        {
          "url": "https://access.redhat.com/errata/RHBA-2018:2652"
        },
        {
          "url": "https://access.redhat.com/errata/RHSA-2018:2654"
        },
        {
          "url": "https://access.redhat.com/errata/RHSA-2018:2709"
        },
        {
          "url": "https://access.redhat.com/errata/RHSA-2018:2906"
        },
        {
          "url": "https://access.redhat.com/errata/RHSA-2018:2908"
        },
        {
          "url": "https://bugzilla.redhat.com/show_bug.cgi?id=CVE-2018-14632"
        },
        {
          "url": "https://nvd.nist.gov/vuln/detail/CVE-2018-14632"
        }
      ],
      "details": {
        "vulnerable_package": {
          "name": "Vulnerable Package",
          "type": "text",
          "value": "github.com/evanphx/json-patch:v4.2.0"
        }
      }
    },
    {
      "id": "228afd8c2fead4bf15bbd0294a9f4f0b76dfee560cae1c30d2a92dc25e704cb9",
      "name": "ReDoS",
      "description": "The programming library UA-Parser uses regular expressions to identify user agent strings. The complexity of the regular expressions is such that an attacker can craft special patterns that keep the server busy for a long time. By sending many requests in short order, an attacker can exhaust the amount of processing power available.",
      "severity": "Medium",
      "solution": "Upgrade to the latest version",
      "location": {
        "file": "ruby-project-2/Gemfile.lock",
        "dependency": {
          "package": {
            "name": "user_agent_parser"
          },
          "version": "2.5.0"
        }
      },
      "identifiers": [
        {
          "type": "gemnasium",
          "name": "Gemnasium-7a96bda0-52f4-40bd-8703-0fe6c17f96ea",
          "value": "7a96bda0-52f4-40bd-8703-0fe6c17f96ea",
          "url": "https://gitlab.com/gitlab-org/security-products/gemnasium-db/-/blob/v1.2.142/gem/user_agent_parser/CVE-2018-20164.yml"
        },
        {
          "type": "cve",
          "name": "CVE-2018-20164",
          "value": "CVE-2018-20164",
          "url": "https://cve.mitre.org/cgi-bin/cvename.cgi?name=CVE-2018-20164"
        }
      ],
      "links": [
        {
          "url": "https://github.com/ua-parser/uap-core/pull/363/files"
        },
        {
          "url": "https://nvd.nist.gov/vuln/detail/CVE-2018-20164"
        },
        {
          "url": "https://www.openwall.com/lists/oss-security/2019/01/10/2"
        },
        {
          "url": "https://www.x41-dsec.de/lab/advisories/x41-2018-009-uaparser/"
        }
      ],
      "details": {
        "vulnerable_package": {
          "name": "Vulnerable Package",
          "type": "text",
          "value": "user_agent_parser:2.5.0"
        }
      }
    },
    {
      "id": "977be3a7f8bdd14f3586b73aa4d41400cb1622ab93c4958e17bdb05b2529ad95",
      "name": "Denial of Service",
      "description": "Hash caches and dynamic Symbol creation can be exploited by an attacker.",
      "severity": "Unknown",
      "solution": "Upgrade to latest version.",
      "location": {
        "file": "ruby-project-1/Gemfile.lock",
        "dependency": {
          "package": {
            "name": "coderay"
          },
          "version": "1.1.0.rc2"
        }
      },
      "identifiers": [
        {
          "type": "gemnasium",
          "name": "Gemnasium-dd04e660-5f75-4bc7-8931-2c2b8c6e9fe0",
          "value": "dd04e660-5f75-4bc7-8931-2c2b8c6e9fe0",
          "url": "https://gitlab.com/gitlab-org/security-products/gemnasium-db/-/blob/v1.2.142/gem/coderay/GMS-2013-15.yml"
        }
      ],
      "links": [
        {
          "url": "https://github.com/rubychan/coderay/commit/d9ee8379543c59e75e39a7a233df6639ee7d4160"
        },
        {
          "url": "https://github.com/rubychan/coderay/issues/148"
        },
        {
          "url": "https://github.com/rubychan/coderay/pull/149"
        }
      ],
      "details": {
        "vulnerable_package": {
          "name": "Vulnerable Package",
          "type": "text",
          "value": "coderay:1.1.0.rc2"
        }
      }
    }
  ],
  "scan": {
    "analyzer": {
      "id": "gemnasium",
      "name": "Gemnasium",
      "url": "https://gitlab.com/gitlab-org/security-products/analyzers/gemnasium",
      "vendor": {
        "name": "GitLab"
      },
      "version": "3.6.0"
    },
    "scanner": {
      "id": "gemnasium",
      "name": "Gemnasium",
      "url": "https://gitlab.com/gitlab-org/security-products/analyzers/gemnasium",
      "vendor": {
        "name": "GitLab"
      },
      "version": "2.34.0"
    },
    "type": "dependency_scanning",
    "start_time": "2022-02-22T05:15:12",
    "end_time": "2022-02-22T05:15:15",
    "status": "success"
  }
}
