[
  {
    "name": "barryvdh/laravel-debugbar",
    "version": "v2.4.3"
  },
  {
    "name": "barryvdh/laravel-ide-helper",
    "version": "v2.4.1"
  },
  {
    "name": "barryvdh/reflection-docblock",
    "version": "v2.0.4"
  },
  {
    "name": "classpreloader/classpreloader",
    "version": "3.1.0"
  },
  {
    "name": "cnvs/easel",
    "version": "v3.4.2"
  },
  {
    "name": "cnvs/paper-dark",
    "version": "v1.0.5"
  },
  {
    "name": "dflydev/apache-mime-types",
    "version": "v1.0.1"
  },
  {
    "name": "dnoegel/php-xdg-base-dir",
    "version": "0.1"
  },
  {
    "name": "doctrine/annotations",
    "version": "v1.4.0"
  },
  {
    "name": "doctrine/cache",
    "version": "v1.6.2"
  },
  {
    "name": "doctrine/collections",
    "version": "v1.4.0"
  },
  {
    "name": "doctrine/common",
    "version": "v2.7.3"
  },
  {
    "name": "doctrine/dbal",
    "version": "v2.5.13"
  },
  {
    "name": "doctrine/inflector",
    "version": "v1.2.0"
  },
  {
    "name": "doctrine/lexer",
    "version": "v1.0.1"
  },
  {
    "name": "erusev/parsedown",
    "version": "1.6.3"
  },
  {
    "name": "fzaninotto/faker",
    "version": "v1.6.0"
  },
  {
    "name": "jakub-onderka/php-console-color",
    "version": "0.1"
  },
  {
    "name": "jakub-onderka/php-console-highlighter",
    "version": "v0.3.2"
  },
  {
    "name": "jeremeamia/SuperClosure",
    "version": "2.3.0"
  },
  {
    "name": "larapack/config-writer",
    "version": "v1.0.1"
  },
  {
    "name": "laravel/framework",
    "version": "v5.3.31"
  },
  {
    "name": "laravel/scout",
    "version": "v2.0.3"
  },
  {
    "name": "league/flysystem",
    "version": "1.0.40"
  },
  {
    "name": "maatwebsite/excel",
    "version": "2.1.20"
  },
  {
    "name": "maximebf/debugbar",
    "version": "1.13.1"
  },
  {
    "name": "monolog/monolog",
    "version": "1.23.0"
  },
  {
    "name": "mtdowling/cron-expression",
    "version": "v1.2.0"
  },
  {
    "name": "nesbot/carbon",
    "version": "1.22.1"
  },
  {
    "name": "nikic/php-parser",
    "version": "v3.1.0"
  },
  {
    "name": "paragonie/random_compat",
    "version": "v2.0.10"
  },
  {
    "name": "phpoffice/phpexcel",
    "version": "1.8.1"
  },
  {
    "name": "psr/log",
    "version": "1.0.2"
  },
  {
    "name": "psy/psysh",
    "version": "v0.8.11"
  },
  {
    "name": "ramsey/uuid",
    "version": "3.6.1"
  },
  {
    "name": "swiftmailer/swiftmailer",
    "version": "v5.4.8"
  },
  {
    "name": "symfony/class-loader",
    "version": "v3.3.6"
  },
  {
    "name": "symfony/console",
    "version": "v3.1.10"
  },
  {
    "name": "symfony/css-selector",
    "version": "v3.3.6"
  },
  {
    "name": "symfony/debug",
    "version": "v3.1.10"
  },
  {
    "name": "symfony/event-dispatcher",
    "version": "v3.3.6"
  },
  {
    "name": "symfony/finder",
    "version": "v3.1.10"
  },
  {
    "name": "symfony/http-foundation",
    "version": "v3.1.10"
  },
  {
    "name": "symfony/http-kernel",
    "version": "v3.1.10"
  },
  {
    "name": "symfony/polyfill-mbstring",
    "version": "v1.4.0"
  },
  {
    "name": "symfony/polyfill-php56",
    "version": "v1.4.0"
  },
  {
    "name": "symfony/polyfill-util",
    "version": "v1.4.0"
  },
  {
    "name": "symfony/process",
    "version": "v3.1.10"
  },
  {
    "name": "symfony/routing",
    "version": "v3.1.10"
  },
  {
    "name": "symfony/translation",
    "version": "v3.1.10"
  },
  {
    "name": "symfony/var-dumper",
    "version": "v3.1.10"
  },
  {
    "name": "talvbansal/media-manager",
    "version": "v2.5.5"
  },
  {
    "name": "teamtnt/laravel-scout-tntsearch-driver",
    "version": "v2.0.5"
  },
  {
    "name": "teamtnt/tntsearch",
    "version": "v1.0.6"
  },
  {
    "name": "tijsverkoyen/css-to-inline-styles",
    "version": "2.2.0"
  },
  {
    "name": "vlucas/phpdotenv",
    "version": "v2.4.0"
  },
  {
    "name": "doctrine/instantiator",
    "version": "1.0.5"
  },
  {
    "name": "hamcrest/hamcrest-php",
    "version": "v1.2.2"
  },
  {
    "name": "mockery/mockery",
    "version": "0.9.9"
  },
  {
    "name": "myclabs/deep-copy",
    "version": "1.6.1"
  },
  {
    "name": "phpdocumentor/reflection-common",
    "version": "1.0"
  },
  {
    "name": "phpdocumentor/reflection-docblock",
    "version": "3.2.0"
  },
  {
    "name": "phpdocumentor/type-resolver",
    "version": "0.4.0"
  },
  {
    "name": "phpspec/prophecy",
    "version": "v1.7.0"
  },
  {
    "name": "phpunit/php-code-coverage",
    "version": "4.0.8"
  },
  {
    "name": "phpunit/php-file-iterator",
    "version": "1.4.2"
  },
  {
    "name": "phpunit/php-text-template",
    "version": "1.2.1"
  },
  {
    "name": "phpunit/php-timer",
    "version": "1.0.9"
  },
  {
    "name": "phpunit/php-token-stream",
    "version": "2.0.0"
  },
  {
    "name": "phpunit/phpunit",
    "version": "5.7.21"
  },
  {
    "name": "phpunit/phpunit-mock-objects",
    "version": "3.4.4"
  },
  {
    "name": "sebastian/code-unit-reverse-lookup",
    "version": "1.0.1"
  },
  {
    "name": "sebastian/comparator",
    "version": "1.2.4"
  },
  {
    "name": "sebastian/diff",
    "version": "1.4.3"
  },
  {
    "name": "sebastian/environment",
    "version": "2.0.0"
  },
  {
    "name": "sebastian/exporter",
    "version": "2.0.0"
  },
  {
    "name": "sebastian/global-state",
    "version": "1.1.1"
  },
  {
    "name": "sebastian/object-enumerator",
    "version": "2.0.1"
  },
  {
    "name": "sebastian/recursion-context",
    "version": "2.0.0"
  },
  {
    "name": "sebastian/resource-operations",
    "version": "1.0.0"
  },
  {
    "name": "sebastian/version",
    "version": "2.0.1"
  },
  {
    "name": "symfony/dom-crawler",
    "version": "v3.3.6"
  },
  {
    "name": "symfony/yaml",
    "version": "v3.3.6"
  },
  {
    "name": "webmozart/assert",
    "version": "1.2.0"
  }
]
