{
  "filepath": "cocoapods/Podfile.lock",
  "package_manager": "cocoapods",
  "package_type": "cocoapods",
  "packages": [
    {
      "name": "Alamofire",
      "version": "4.4.0"
    },
    {
      "name": "IQKeyboardManagerSwift",
      "version": "4.0.8"
    },
    {
      "name": "Moya",
      "version": "8.0.2"
    },
    {
      "name": "Moya/Core",
      "version": "8.0.2"
    },
    {
      "name": "Result",
      "version": "3.2.1"
    },
    {
      "name": "SwiftKeychainWrapper",
      "version": "3.0.1"
    },
    {
      "name": "SwiftyJSON",
      "version": "3.1.4"
    },
    {
      "name": "Toast-Swift",
      "version": "2.0.0"
    },
    {
      "name": "postgres-nio",
      "version": "1.0.0"
    }
  ],
  "affections": null
}
