digraph "dependency-graph" {
    graph[rankdir="LR"; splines=polyline]
    edge [
        arrowtail="none"
    ]
    "antlr:antlr:2.7.7"[shape=box label=<antlr<BR/><B>antlr</B><BR/>2.7.7> style="" penwidth="5" color="#7C989B"]
    "com.example:hello_2.12:0.1.0-SNAPSHOT"[shape=box label=<com.example<BR/><B>hello_2.12</B><BR/>0.1.0-SNAPSHOT> style="" penwidth="5" color="#0682E3"]
    "com.fasterxml.jackson.core:jackson-annotations:2.9.0"[shape=box label=<com.fasterxml.jackson.core<BR/><B>jackson-annotations</B><BR/>2.9.0> style="" penwidth="5" color="#638ACF"]
    "com.fasterxml.jackson.core:jackson-core:2.9.2"[shape=box label=<com.fasterxml.jackson.core<BR/><B>jackson-core</B><BR/>2.9.2> style="" penwidth="5" color="#638ACF"]
    "com.fasterxml.jackson.core:jackson-databind:2.8.2"[shape=box label=<com.fasterxml.jackson.core<BR/><B>jackson-databind</B><BR/>2.8.2> style="dashed" penwidth="3" color="#638ACF"]
    "com.fasterxml.jackson.core:jackson-databind:2.9.2"[shape=box label=<com.fasterxml.jackson.core<BR/><B>jackson-databind</B><BR/>2.9.2> style="" penwidth="5" color="#638ACF"]
    "com.github.stephenc.findbugs:findbugs-annotations:1.3.9-1"[shape=box label=<com.github.stephenc.findbugs<BR/><B>findbugs-annotations</B><BR/>1.3.9-1> style="" penwidth="5" color="#1D7DD2"]
    "commons-beanutils:commons-beanutils:1.8.3"[shape=box label=<commons-beanutils<BR/><B>commons-beanutils</B><BR/>1.8.3> style="" penwidth="5" color="#30E552"]
    "commons-io:commons-io:2.3"[shape=box label=<commons-io<BR/><B>commons-io</B><BR/>2.3> style="" penwidth="5" color="#963326"]
    "commons-lang:commons-lang:2.5"[shape=box label=<commons-lang<BR/><B>commons-lang</B><BR/>2.5> style="" penwidth="5" color="#ABBBA1"]
    "it.unimi.dsi:fastutil:7.0.2"[shape=box label=<it.unimi.dsi<BR/><B>fastutil</B><BR/>7.0.2> style="" penwidth="5" color="#03B24C"]
    "javax.resource:javax.resource-api:1.7"[shape=box label=<javax.resource<BR/><B>javax.resource-api</B><BR/>1.7> style="" penwidth="5" color="#5E935B"]
    "javax.transaction:javax.transaction-api:1.2"[shape=box label=<javax.transaction<BR/><B>javax.transaction-api</B><BR/>1.2> style="" penwidth="5" color="#ABDA78"]
    "net.java.dev.jna:jna:4.0.0"[shape=box label=<net.java.dev.jna<BR/><B>jna</B><BR/>4.0.0> style="" penwidth="5" color="#8B3124"]
    "net.sf.jopt-simple:jopt-simple:5.0.1"[shape=box label=<net.sf.jopt-simple<BR/><B>jopt-simple</B><BR/>5.0.1> style="" penwidth="5" color="#29BD44"]
    "org.apache.geode:geode-common:1.1.1"[shape=box label=<org.apache.geode<BR/><B>geode-common</B><BR/>1.1.1> style="" penwidth="5" color="#0C08A9"]
    "org.apache.geode:geode-core:1.1.1"[shape=box label=<org.apache.geode<BR/><B>geode-core</B><BR/>1.1.1> style="" penwidth="5" color="#0C08A9"]
    "org.apache.geode:geode-json:1.1.1"[shape=box label=<org.apache.geode<BR/><B>geode-json</B><BR/>1.1.1> style="" penwidth="5" color="#0C08A9"]
    "org.apache.logging.log4j:log4j-api:2.6.1"[shape=box label=<org.apache.logging.log4j<BR/><B>log4j-api</B><BR/>2.6.1> style="" penwidth="5" color="#7882BF"]
    "org.apache.logging.log4j:log4j-core:2.6.1"[shape=box label=<org.apache.logging.log4j<BR/><B>log4j-core</B><BR/>2.6.1> style="" penwidth="5" color="#7882BF"]
    "org.apache.shiro:shiro-core:1.3.1"[shape=box label=<org.apache.shiro<BR/><B>shiro-core</B><BR/>1.3.1> style="" penwidth="5" color="#A56118"]
    "org.jgroups:jgroups:3.6.10.Final"[shape=box label=<org.jgroups<BR/><B>jgroups</B><BR/>3.6.10.Final> style="" penwidth="5" color="#63E3A2"]
    "org.mozilla:rhino:1.7.10"[shape=box label=<org.mozilla<BR/><B>rhino</B><BR/>1.7.10> style="" penwidth="5" color="#304ACF"]
    "org.slf4j:slf4j-api:1.6.4"[shape=box label=<org.slf4j<BR/><B>slf4j-api</B><BR/>1.6.4> style="" penwidth="5" color="#8A0B16"]
    "com.example:hello_2.12:0.1.0-SNAPSHOT" -> "com.fasterxml.jackson.core:jackson-databind:2.9.2"
    "com.example:hello_2.12:0.1.0-SNAPSHOT" -> "org.apache.geode:geode-core:1.1.1"
    "com.example:hello_2.12:0.1.0-SNAPSHOT" -> "org.mozilla:rhino:1.7.10"
    "com.fasterxml.jackson.core:jackson-databind:2.8.2" -> "com.fasterxml.jackson.core:jackson-databind:2.9.2" [label="Evicted By" style="dashed"]
    "com.fasterxml.jackson.core:jackson-databind:2.9.2" -> "com.fasterxml.jackson.core:jackson-annotations:2.9.0"
    "com.fasterxml.jackson.core:jackson-databind:2.9.2" -> "com.fasterxml.jackson.core:jackson-core:2.9.2"
    "javax.resource:javax.resource-api:1.7" -> "javax.transaction:javax.transaction-api:1.2"
    "org.apache.geode:geode-core:1.1.1" -> "antlr:antlr:2.7.7"
    "org.apache.geode:geode-core:1.1.1" -> "com.fasterxml.jackson.core:jackson-databind:2.8.2"
    "org.apache.geode:geode-core:1.1.1" -> "com.github.stephenc.findbugs:findbugs-annotations:1.3.9-1"
    "org.apache.geode:geode-core:1.1.1" -> "commons-io:commons-io:2.3"
    "org.apache.geode:geode-core:1.1.1" -> "commons-lang:commons-lang:2.5"
    "org.apache.geode:geode-core:1.1.1" -> "it.unimi.dsi:fastutil:7.0.2"
    "org.apache.geode:geode-core:1.1.1" -> "javax.resource:javax.resource-api:1.7"
    "org.apache.geode:geode-core:1.1.1" -> "net.java.dev.jna:jna:4.0.0"
    "org.apache.geode:geode-core:1.1.1" -> "net.sf.jopt-simple:jopt-simple:5.0.1"
    "org.apache.geode:geode-core:1.1.1" -> "org.apache.geode:geode-common:1.1.1"
    "org.apache.geode:geode-core:1.1.1" -> "org.apache.geode:geode-json:1.1.1"
    "org.apache.geode:geode-core:1.1.1" -> "org.apache.logging.log4j:log4j-api:2.6.1"
    "org.apache.geode:geode-core:1.1.1" -> "org.apache.logging.log4j:log4j-core:2.6.1"
    "org.apache.geode:geode-core:1.1.1" -> "org.apache.shiro:shiro-core:1.3.1"
    "org.apache.geode:geode-core:1.1.1" -> "org.jgroups:jgroups:3.6.10.Final"
    "org.apache.logging.log4j:log4j-core:2.6.1" -> "org.apache.logging.log4j:log4j-api:2.6.1"
    "org.apache.shiro:shiro-core:1.3.1" -> "commons-beanutils:commons-beanutils:1.8.3"
    "org.apache.shiro:shiro-core:1.3.1" -> "org.slf4j:slf4j-api:1.6.4"
}