[
  {
    "name": "github.com/swift-server/async-http-client",
    "version": "1.21.1"
  },
  {
    "name": "github.com/vapor/async-kit",
    "version": "1.19.0"
  },
  {
    "name": "github.com/vapor/console-kit",
    "version": "4.14.1"
  },
  {
    "name": "github.com/vapor/multipart-kit",
    "version": "4.6.0"
  },
  {
    "name": "github.com/vapor/routing-kit",
    "version": "4.9.1"
  },
  {
    "name": "github.com/apple/swift-algorithms",
    "version": "1.2.0"
  },
  {
    "name": "github.com/apple/swift-atomics",
    "version": "1.2.0"
  },
  {
    "name": "github.com/swift-server/swift-backtrace",
    "version": "1.3.4"
  },
  {
    "name": "github.com/apple/swift-collections",
    "version": "1.1.0"
  },
  {
    "name": "github.com/apple/swift-crypto",
    "version": "3.3.0"
  },
  {
    "name": "github.com/apple/swift-http-types",
    "version": "1.0.3"
  },
  {
    "name": "github.com/apple/swift-log",
    "version": "1.5.4"
  },
  {
    "name": "github.com/apple/swift-metrics",
    "version": "2.4.1"
  },
  {
    "name": "github.com/apple/swift-nio",
    "version": "2.65.0"
  },
  {
    "name": "github.com/apple/swift-nio-extras",
    "version": "1.22.0"
  },
  {
    "name": "github.com/apple/swift-nio-http2",
    "version": "1.31.0"
  },
  {
    "name": "github.com/apple/swift-nio-ssl",
    "version": "2.26.0"
  },
  {
    "name": "github.com/apple/swift-nio-transport-services",
    "version": "1.20.1"
  },
  {
    "name": "github.com/apple/swift-numerics",
    "version": "1.0.2"
  },
  {
    "name": "github.com/apple/swift-system",
    "version": "1.2.1"
  },
  {
    "name": "github.com/vapor/websocket-kit",
    "version": "2.15.0"
  }
]
