[
  {
    "range": ">=2.2",
    "version": "4.5.1"
  },
  {
    "range": "<1.8.1",
    "version": "4.5.1"
  },
  {
    "range": "<3.0.3",
    "version": "4.5.1"
  },
  {
    "range": "<3.1.0",
    "version": "4.5.1"
  },
  {
    "range": ">=5.0.0,<5.2.24||>=6.0.0alpha0,<=6.0.0rc5",
    "version": "4.5.1"
  },
  {
    "range": "5.2.18||5.2.19",
    "version": "4.5.1"
  },
  {
    "range": "<5.2.18",
    "version": "4.5.1"
  },
  {
    "range": "<5.2.22",
    "version": "4.5.1"
  },
  {
    "range": "<5.2.14",
    "version": "4.5.1"
  },
  {
    "range": "<5.20.6",
    "version": "4.5.1"
  },
  {
    "range": "<5.20.11",
    "version": "4.5.1"
  },
  {
    "range": "<4.2.4||>=5.0.0,< 5.3.1||>6.0.0,<6.2.1",
    "version": "4.5.1"
  },
  {
    "range": "<8.2.7",
    "version": "4.5.1"
  },
  {
    "range": "<8.2.3",
    "version": "4.5.1"
  },
  {
    "range": "<8.3.4",
    "version": "4.5.1"
  },
  {
    "range": ">=8.0.0-alpha0,<8.3.0||>=8.4.0-alpha0,<8.4.6||>=8.5.0-alpha0,<8.5.1",
    "version": "4.5.1"
  },
  {
    "range": "<8.4.5",
    "version": "4.5.1"
  },
  {
    "range": ">=8.0.0-alpha0,<8.2.8||>=8.3.0-alpha0,<8.3.1",
    "version": "4.5.1"
  },
  {
    "range": "<8.4.8||>=8.5.0-alpha0,<8.5.3",
    "version": "4.5.1"
  },
  {
    "range": "<8.1.10",
    "version": "4.5.1"
  },
  {
    "range": "<8.4.7||>=8.5.0-alpha0,<8.5.2",
    "version": "4.5.1"
  },
  {
    "range": ">=8.0.0-alpha,<8.1.3",
    "version": "4.5.1"
  },
  {
    "range": ">=8.0.0-alpha,<8.1.7",
    "version": "4.5.1"
  },
  {
    "range": ">= 8.0.0, <8.3.7",
    "version": "4.5.1"
  },
  {
    "range": "<1.7.0",
    "version": "4.5.1"
  },
  {
    "range": "<1.8.2",
    "version": "4.5.1"
  },
  {
    "range": "<2.2.5",
    "version": "4.5.1"
  },
  {
    "range": "<1.12.14",
    "version": "4.5.1"
  },
  {
    "range": ">=1.12.0,<1.12.16",
    "version": "4.5.1"
  },
  {
    "range": "<1.12.19",
    "version": "4.5.1"
  },
  {
    "range": "<1.12.20",
    "version": "4.5.1"
  },
  {
    "range": "<1.12.17",
    "version": "4.5.1"
  },
  {
    "range": "<1.12.18",
    "version": "4.5.1"
  },
  {
    "range": ">=2.0.0, <2.4.6 || >=2.5.0, <2.5.2",
    "version": "4.5.1"
  },
  {
    "range": "<2.4.9||>=2.5.0,<2.5.2",
    "version": "4.5.1"
  },
  {
    "range": "<2.4.8",
    "version": "4.5.1"
  },
  {
    "range": "<2.2.8||>=2.3.0-alpha0,<2.3.3",
    "version": "4.5.1"
  },
  {
    "range": "<2.4.11",
    "version": "4.5.1"
  },
  {
    "range": "<2.4.11||>=2.5.0,<2.7.2",
    "version": "4.5.1"
  },
  {
    "range": "<2.4.8||>=2.5.0,<2.5.3",
    "version": "4.5.1"
  },
  {
    "range": "<=2.1.6",
    "version": "4.5.1"
  },
  {
    "range": ">=3.1.0,<3.1.4||>=3.0.0,<3.0.15||>=2.7.0,<2.7.6||<2.6.12",
    "version": "4.5.1"
  },
  {
    "range": "<2.5.9||>=2.6.0,<2.6.11||>=2.7.0,<2.7.2",
    "version": "4.5.1"
  },
  {
    "range": "<1.10.10",
    "version": "4.5.1"
  },
  {
    "range": "<1.0.1",
    "version": "4.5.1"
  },
  {
    "range": ">=2.0.0,<2.0.4||<1.0.4",
    "version": "4.5.1"
  },
  {
    "range": "<2.0.6",
    "version": "4.5.1"
  },
  {
    "range": "<3.8.1",
    "version": "4.5.1"
  },
  {
    "range": "<2.0.14",
    "version": "4.5.1"
  },
  {
    "range": "<2.0.12.1||>=2.0.13.0alpha,<2.0.13.2||>=2.0.14.0alpha,<2.0.15",
    "version": "4.5.1"
  },
  {
    "range": "<2.0.5",
    "version": "4.5.1"
  },
  {
    "range": "<2.0.8",
    "version": "4.5.1"
  },
  {
    "range": "<0.7.22",
    "version": "4.5.1"
  },
  {
    "range": "<0.7.20",
    "version": "4.5.1"
  },
  {
    "range": "7.0.0",
    "version": "4.5.1"
  },
  {
    "range": "<1.0.11",
    "version": "4.5.1"
  },
  {
    "range": "<2.2.1",
    "version": "4.5.1"
  },
  {
    "range": "<3.1.21",
    "version": "4.5.1"
  },
  {
    "range": "<5.4.5",
    "version": "4.5.1"
  },
  {
    "range": "<2.10.4",
    "version": "4.5.1"
  },
  {
    "range": "<2.10.0",
    "version": "4.5.1"
  },
  {
    "range": "<5.2.16",
    "version": "4.5.1"
  },
  {
    "range": ">=5.2.0-alpha0,<=5.3.6",
    "version": "4.5.1"
  },
  {
    "range": ">=5.0.0alpha,<5.1.5||<4.3.7",
    "version": "4.5.1"
  },
  {
    "range": "<5.2.25",
    "version": "4.5.1"
  },
  {
    "range": "<2.3.0",
    "version": "4.5.1"
  },
  {
    "range": "<2.0.0",
    "version": "4.5.1"
  },
  {
    "range": "<3.2.1",
    "version": "4.5.1"
  },
  {
    "range": "<3.1.16||>=3.2.0,<3.2.1",
    "version": "4.5.1"
  },
  {
    "range": "<3.1.14",
    "version": "4.5.1"
  },
  {
    "range": "<3.1.20||>=3.2.0-alpha0,<3.2.5||>=3.3.0-alpha0,<3.3.3||>=3.4.0-alpha0,<3.4.1",
    "version": "4.5.1"
  },
  {
    "range": ">=3.3.0-alpha,<3.3.2-rc1||>=3.2.0-alpha,<3.2.4-rc1||<3.1.19-rc1",
    "version": "4.5.1"
  },
  {
    "range": ">=3.3.0-alpha0,<3.3.3||>=3.4.0-alpha0,<3.4.1",
    "version": "4.5.1"
  },
  {
    "range": "<3.1.21||>=3.2.0-alpha0,<3.2.6||>=3.3.0-alpha0,<3.3.4||>=3.4.0-alpha0,<3.4.2",
    "version": "4.5.1"
  },
  {
    "range": "<3.4.4-rc1||>=3.5.0-alpha0,<3.5.2-rc1",
    "version": "4.5.1"
  },
  {
    "range": "<3.0.0",
    "version": "4.5.1"
  },
  {
    "range": "<0.6.2||>=0.7.0,<0.7.4",
    "version": "4.5.1"
  },
  {
    "range": "<2.8.3",
    "version": "4.5.1"
  },
  {
    "range": "<3.2.3",
    "version": "4.5.1"
  },
  {
    "range": ">=3.1.0-alpha,<3.1.17||>=3.2.0-alpha,<3.2.2||>=3.3.0-alpha,<3.3.0",
    "version": "4.5.1"
  },
  {
    "range": "<1.1.2",
    "version": "4.5.1"
  },
  {
    "range": "<1.2",
    "version": "4.5.1"
  },
  {
    "range": ">=1.4.0,<1.4.2||<1.3.2",
    "version": "4.5.1"
  },
  {
    "range": "<1.2.7",
    "version": "4.5.1"
  },
  {
    "range": ">=2.5.0,<2.5.1||<2.4.3",
    "version": "4.5.1"
  },
  {
    "range": "<3.0.1",
    "version": "4.5.1"
  },
  {
    "range": ">=4.8.19,<4.8.28||>=5.0.10,<5.6.3",
    "version": "4.5.1"
  },
  {
    "range": "<2.1.3",
    "version": "4.5.1"
  },
  {
    "range": "<2017.08.0",
    "version": "4.5.1"
  },
  {
    "range": "=2017.08",
    "version": "4.5.1"
  },
  {
    "range": "<1.10.6||>=2.0.0,<2.3.8||>=3.0.0,<3.1.4",
    "version": "4.5.1"
  },
  {
    "range": "<1.9.1||>=1.10.0,<1.10.3||>=2.0.0,<2.3.3",
    "version": "4.5.1"
  },
  {
    "range": "<1.10.5||>=2.0.0,<2.3.7||>=3.0.0,<3.1.3",
    "version": "4.5.1"
  },
  {
    "range": "=1.0",
    "version": "4.5.1"
  },
  {
    "range": "<1.14.16",
    "version": "4.5.1"
  },
  {
    "range": "<1.14.4",
    "version": "4.5.1"
  },
  {
    "range": "<1.14.17",
    "version": "4.5.1"
  },
  {
    "range": ">=1.14.0,<=1.14.11",
    "version": "4.5.1"
  },
  {
    "range": "<1.14.1",
    "version": "4.5.1"
  },
  {
    "range": "<= 1.14.11",
    "version": "4.5.1"
  },
  {
    "range": "<1.14.15",
    "version": "4.5.1"
  },
  {
    "range": "<1.14.11",
    "version": "4.5.1"
  },
  {
    "range": "<=1.14.13",
    "version": "4.5.1"
  },
  {
    "range": ">=2.14.2,<2.21.1",
    "version": "4.5.1"
  },
  {
    "range": "3.9.2",
    "version": "4.5.1"
  },
  {
    "range": "<3.12.0",
    "version": "4.5.1"
  },
  {
    "range": "<0.6.1",
    "version": "4.5.1"
  },
  {
    "range": "<2.0.2",
    "version": "4.5.1"
  },
  {
    "range": "<6.2.29||>=7.6.0,<7.6.13||>=8.0.0,<8.4.1",
    "version": "4.5.1"
  },
  {
    "range": ">=6.2.0,<6.2.15||>=7.0.0,<7.4.0",
    "version": "4.5.1"
  },
  {
    "range": "<6.2.27||>=7.0.0.alpha,<7.6.11||>=8.0.0.alpha,<8.3.1",
    "version": "4.5.1"
  },
  {
    "range": ">=6.2.0,<6.2.16||>=7.0.0,<7.6.1",
    "version": "4.5.1"
  },
  {
    "range": "<6.2.19",
    "version": "4.5.1"
  },
  {
    "range": ">=6.2.0,<6.2.16",
    "version": "4.5.1"
  },
  {
    "range": "<6.2.16",
    "version": "4.5.1"
  },
  {
    "range": ">=7.6.0,<7.6.16||>=8.0.0,<8.6.1",
    "version": "4.5.1"
  },
  {
    "range": ">=8.0.0,<8.6.1",
    "version": "4.5.1"
  },
  {
    "range": ">=4.3.0-alpha,<6.2.24||>=7.0.0-alpha,<7.6.8||>=8.0.0-alpha,<8.1.1",
    "version": "4.5.1"
  },
  {
    "range": ">=7.6.0,<7.6.22||>=8.0.0,<8.7.5",
    "version": "4.5.1"
  },
  {
    "range": ">=8.0.0,<8.7.5",
    "version": "4.5.1"
  },
  {
    "range": ">=2.0.0alpha,<2.0.4||>=1.2.0alpha,<1.2.13",
    "version": "4.5.1"
  },
  {
    "range": ">=1.1.0-beta1,<1.1.3||>=1.2.0-beta1,<1.2.3",
    "version": "4.5.1"
  },
  {
    "range": ">=3.0.0-beta1,<3.0.1||>=2.3.0,<2.3.7",
    "version": "4.5.1"
  },
  {
    "range": ">=3.0.0-beta1,<3.0.1",
    "version": "4.5.1"
  },
  {
    "range": "<2.3.16||>=3.0.0-alpha,<3.0.10||>=3.1.0-alpha,<3.1.7||>=3.2.0-alpha,<3.2.7||>=3.3.0-alpha,<3.3.5",
    "version": "4.5.1"
  },
  {
    "range": "<2.0.0-alpha8",
    "version": "4.5.1"
  },
  {
    "range": "<=1.7.1",
    "version": "4.5.1"
  },
  {
    "range": "<1.0.3",
    "version": "4.5.1"
  },
  {
    "range": ">=3.0.0, <3.2.1",
    "version": "4.5.1"
  },
  {
    "range": ">=v2.7.0-alpha0,<=v2.7.37||>=v2.8.0-alpha0,<=v2.8.30||>=v3.2.0-alpha0,<=v3.2.13||>=v3.3.0-alpha0,<=v3.3.12",
    "version": "4.5.1"
  },
  {
    "range": ">=2.7.30,<2.7.32||>=2.8.23,<2.8.25||>=3.2.10,<3.2.12||>=3.3.3,<3.3.5",
    "version": "4.5.1"
  },
  {
    "range": "<2.7.13||>=2.8.0-alpha,<2.8.6||>=3.0.0-alpha,<3.0.6",
    "version": "4.5.1"
  },
  {
    "range": "<2.3.27||>=2.4.0-alpha,<2.5.11||>=2.6.0-alpha,<2.6.6",
    "version": "4.5.1"
  },
  {
    "range": ">=2.8.0-alpha,<2.8.6||>=3.0.0-alpha,<3.0.6",
    "version": "4.5.1"
  },
  {
    "range": "<2.3.41||>=2.4.0-alpha,<2.7.13||>=2.8.0-alpha,<2.8.6||>=3.0.0-alpha,<3.0.6",
    "version": "4.5.1"
  },
  {
    "range": "<2.16.1",
    "version": "4.5.1"
  },
  {
    "range": "<2.6.0",
    "version": "4.5.1"
  },
  {
    "range": "2.7.1",
    "version": "4.5.1"
  },
  {
    "range": "<1.20.0",
    "version": "4.5.1"
  },
  {
    "range": "<2.8.1||>=3.0.0a1,<3.0.0RC4",
    "version": "4.5.1"
  },
  {
    "range": ">=3.0.0a1,<3.0.1",
    "version": "4.5.1"
  },
  {
    "range": ">0.0.0-alpha0",
    "version": "4.5.1"
  },
  {
    "range": "<3.5.35",
    "version": "4.5.1"
  },
  {
    "range": "<3.5.32",
    "version": "4.5.1"
  },
  {
    "range": ">=4.0.0-alpha0, <=4.0.3",
    "version": "4.5.1"
  },
  {
    "range": "<4.4.8||=4.5.0-beta1",
    "version": "4.5.1"
  },
  {
    "range": "<4.4.18||>=4.5.0-alpha0,<4.5.8",
    "version": "4.5.1"
  },
  {
    "range": ">=4.0.0,<4.4.1",
    "version": "4.5.1"
  },
  {
    "range": "<=3.8.0",
    "version": "4.5.1"
  },
  {
    "range": ">=1.0.0,<1.3.1",
    "version": "4.5.1"
  },
  {
    "range": "<5.5.40||>=5.6.0-alpha0,<5.6.15",
    "version": "4.5.1"
  },
  {
    "range": "<5.5.10",
    "version": "4.5.1"
  },
  {
    "range": "<5.4.27",
    "version": "4.5.1"
  },
  {
    "range": "<5.4.22",
    "version": "4.5.1"
  },
  {
    "range": "<2.0.10",
    "version": "4.5.1"
  },
  {
    "range": ">=v5.2.45,<v5.4.22",
    "version": "4.5.1"
  },
  {
    "range": "<=0.6.0",
    "version": "4.5.1"
  }
]
